<?xml version="1.0" encoding="UTF-8" standalone="no"?>
<svg
   sodipodi:docname="sedimenting_sphere.svg"
   inkscape:version="1.1.1 (1:1.1+202109281949+c3084ef5ed)"
   inkscape:export-ydpi="420.009"
   inkscape:export-xdpi="420.009"
   inkscape:export-filename="/Users/thomasina/Documents/Warwick/Lectures/sedimenting_sphere.png"
   id="svg8"
   version="1.1"
   viewBox="0 0 65 75"
   height="75mm"
   width="65mm"
   xmlns:inkscape="http://www.inkscape.org/namespaces/inkscape"
   xmlns:sodipodi="http://sodipodi.sourceforge.net/DTD/sodipodi-0.dtd"
   xmlns:xlink="http://www.w3.org/1999/xlink"
   xmlns="http://www.w3.org/2000/svg"
   xmlns:svg="http://www.w3.org/2000/svg"
   xmlns:rdf="http://www.w3.org/1999/02/22-rdf-syntax-ns#"
   xmlns:cc="http://creativecommons.org/ns#"
   xmlns:dc="http://purl.org/dc/elements/1.1/">
  <defs
     id="defs2">
    <marker
       style="overflow:visible"
       id="Arrow1Lstart"
       refX="0"
       refY="0"
       orient="auto"
       inkscape:stockid="Arrow1Lstart"
       inkscape:isstock="true">
      <path
         transform="matrix(0.8,0,0,0.8,10,0)"
         style="fill:context-stroke;fill-rule:evenodd;stroke:context-stroke;stroke-width:1pt"
         d="M 0,0 5,-5 -12.5,0 5,5 Z"
         id="path3883" />
    </marker>
    <rect
       x="484.93909"
       y="153.66043"
       width="25.237598"
       height="32.428608"
       id="rect4183" />
    <inkscape:path-effect
       effect="spiro"
       id="path-effect2877"
       is_visible="true"
       lpeversion="1" />
    <marker
       style="overflow:visible"
       id="Tail"
       refX="0"
       refY="0"
       orient="auto"
       inkscape:stockid="Tail"
       inkscape:isstock="true">
      <g
         transform="scale(-1.2)"
         id="g2477">
        <path
           style="fill:none;fill-rule:evenodd;stroke:context-stroke;stroke-width:0.8;stroke-linecap:round"
           d="M -3.8048674,-3.9585227 0.54352094,0"
           id="path2465" />
        <path
           style="fill:none;fill-rule:evenodd;stroke:context-stroke;stroke-width:0.8;stroke-linecap:round"
           d="M -1.2866832,-3.9585227 3.0617053,0"
           id="path2467" />
        <path
           style="fill:none;fill-rule:evenodd;stroke:context-stroke;stroke-width:0.8;stroke-linecap:round"
           d="M 1.3053582,-3.9585227 5.6537466,0"
           id="path2469" />
        <path
           style="fill:none;fill-rule:evenodd;stroke:context-stroke;stroke-width:0.8;stroke-linecap:round"
           d="M -3.8048674,4.1775838 0.54352094,0.21974226"
           id="path2471" />
        <path
           style="fill:none;fill-rule:evenodd;stroke:context-stroke;stroke-width:0.8;stroke-linecap:round"
           d="M -1.2866832,4.1775838 3.0617053,0.21974226"
           id="path2473" />
        <path
           style="fill:none;fill-rule:evenodd;stroke:context-stroke;stroke-width:0.8;stroke-linecap:round"
           d="M 1.3053582,4.1775838 5.6537466,0.21974226"
           id="path2475" />
      </g>
    </marker>
    <marker
       style="overflow:visible"
       id="Arrow2Mend"
       refX="0"
       refY="0"
       orient="auto"
       inkscape:stockid="Arrow2Mend"
       inkscape:isstock="true">
      <path
         transform="scale(-0.6)"
         d="M 8.7185878,4.0337352 -2.2072895,0.01601326 8.7185884,-4.0017078 c -1.7454984,2.3720609 -1.7354408,5.6174519 -6e-7,8.035443 z"
         style="fill:context-stroke;fill-rule:evenodd;stroke-width:0.625;stroke-linejoin:round"
         id="path2456" />
    </marker>
    <marker
       style="overflow:visible"
       id="Arrow2Lend"
       refX="0"
       refY="0"
       orient="auto"
       inkscape:stockid="Arrow2Lend"
       inkscape:isstock="true">
      <path
         transform="matrix(-1.1,0,0,-1.1,-1.1,0)"
         d="M 8.7185878,4.0337352 -2.2072895,0.01601326 8.7185884,-4.0017078 c -1.7454984,2.3720609 -1.7354408,5.6174519 -6e-7,8.035443 z"
         style="fill:context-stroke;fill-rule:evenodd;stroke-width:0.625;stroke-linejoin:round"
         id="path2450" />
    </marker>
    <marker
       style="overflow:visible"
       id="Arrow1Lend"
       refX="0"
       refY="0"
       orient="auto"
       inkscape:stockid="Arrow1Lend"
       inkscape:isstock="true">
      <path
         transform="matrix(-0.8,0,0,-0.8,-10,0)"
         style="fill:context-stroke;fill-rule:evenodd;stroke:context-stroke;stroke-width:1pt"
         d="M 0,0 5,-5 -12.5,0 5,5 Z"
         id="path2432" />
    </marker>
    <clipPath
       id="clipPath1438"
       clipPathUnits="userSpaceOnUse">
      <rect
         transform="scale(1,-1)"
         y="-1"
         x="-8.4886445e-09"
         height="0.87289816"
         width="0.47978312"
         id="rect1440"
         style="opacity:0.95;fill:#ffffff;fill-opacity:0;stroke:#000000;stroke-width:0.00300589;stroke-miterlimit:4;stroke-dasharray:none" />
    </clipPath>
    <g
       id="g4678">
      <symbol
         overflow="visible"
         id="glyph0-0">
        <path
           style="stroke:none"
           d=""
           id="path4657" />
      </symbol>
      <symbol
         overflow="visible"
         id="glyph0-1">
        <path
           style="stroke:none"
           d="m 26.421875,-21.875 c 0,-0.78125 0.04687,-0.828125 1.046875,-0.9375 0.859375,-0.109375 0.9375,-0.109375 1.9375,-0.109375 h 0.890625 v -1.671875 c -1.359375,0.109375 -3.40625,0.109375 -4.796875,0.109375 -1.515625,0 -3.375,0 -4.84375,-0.109375 v 1.671875 h 0.890625 c 0.65625,0 1.265625,0.04687 1.90625,0.109375 1.03125,0.109375 1.078125,0.15625 1.078125,0.9375 v 13.515625 c 0,5.3125 -3.90625,7.0625 -7.828125,7.0625 -6.265625,0 -6.34375,-4.6875 -6.34375,-6.703125 v -14.921875 h 3.875 v -1.671875 c -1.359375,0.109375 -4.875,0.109375 -6.421875,0.109375 -1.53125,0 -5.046875,0 -6.40625,-0.109375 v 1.671875 H 5.265625 V -8.28125 c 0,4.765625 3.875,8.671875 11.296875,8.671875 6.8125,0 9.859375,-4.1875 9.859375,-8.609375 z m 0,0"
           id="path4660" />
      </symbol>
      <symbol
         overflow="visible"
         id="glyph1-0">
        <path
           style="stroke:none"
           d=""
           id="path4663" />
      </symbol>
      <symbol
         overflow="visible"
         id="glyph1-1">
        <path
           style="stroke:none"
           d="M 11.875,8.609375 C 11.875,8.5 11.875,8.421875 11.265625,7.8125 6.78125,3.296875 5.625,-3.484375 5.625,-8.96875 c 0,-6.234375 1.375,-12.46875 5.78125,-16.953125 0.46875,-0.4375 0.46875,-0.5 0.46875,-0.609375 0,-0.25 -0.15625,-0.359375 -0.359375,-0.359375 -0.359375,0 -3.59375,2.4375 -5.703125,6.984375 -1.828125,3.953125 -2.265625,7.921875 -2.265625,10.9375 0,2.796875 0.390625,7.140625 2.375,11.1875 2.140625,4.421875 5.234375,6.75 5.59375,6.75 0.203125,0 0.359375,-0.109375 0.359375,-0.359375 z m 0,0"
           id="path4666" />
      </symbol>
      <symbol
         overflow="visible"
         id="glyph1-2">
        <path
           style="stroke:none"
           d="m 10.359375,-8.96875 c 0,-2.796875 -0.390625,-7.125 -2.359375,-11.1875 -2.15625,-4.40625 -5.234375,-6.734375 -5.59375,-6.734375 -0.21875,0 -0.359375,0.140625 -0.359375,0.359375 0,0.109375 0,0.171875 0.671875,0.8125 3.515625,3.5625 5.5625,9.265625 5.5625,16.75 0,6.140625 -1.328125,12.453125 -5.765625,16.96875 -0.46875,0.421875 -0.46875,0.5 -0.46875,0.609375 0,0.21875 0.140625,0.359375 0.359375,0.359375 0.359375,0 3.578125,-2.4375 5.703125,-7 1.828125,-3.9375 2.25,-7.921875 2.25,-10.9375 z m 0,0"
           id="path4669" />
      </symbol>
      <symbol
         overflow="visible"
         id="glyph2-0">
        <path
           style="stroke:none"
           d=""
           id="path4672" />
      </symbol>
      <symbol
         overflow="visible"
         id="glyph2-1">
        <path
           style="stroke:none"
           d="M 7.390625,-14.34375 H 10.75 c 0.71875,0 1.078125,0 1.078125,-0.71875 0,-0.390625 -0.359375,-0.390625 -1,-0.390625 h -3.15625 c 1.296875,-5.09375 1.46875,-5.8125 1.46875,-6.03125 0,-0.609375 -0.421875,-0.96875 -1.03125,-0.96875 C 8,-22.453125 7,-22.40625 6.671875,-21.15625 l -1.40625,5.703125 H 1.90625 c -0.71875,0 -1.078125,0 -1.078125,0.671875 0,0.4375 0.28125,0.4375 1,0.4375 h 3.15625 c -2.578125,10.1875 -2.71875,10.796875 -2.71875,11.4375 0,1.9375 1.359375,3.296875 3.296875,3.296875 3.65625,0 5.703125,-5.234375 5.703125,-5.515625 0,-0.359375 -0.296875,-0.359375 -0.4375,-0.359375 -0.328125,0 -0.359375,0.109375 -0.53125,0.5 C 8.75,-1.25 6.84375,-0.390625 5.625,-0.390625 c -0.75,0 -1.109375,-0.46875 -1.109375,-1.65625 0,-0.859375 0.078125,-1.109375 0.21875,-1.71875 z m 0,0"
           id="path4675" />
      </symbol>
    </g>
    <g
       id="g5091">
      <symbol
         overflow="visible"
         id="glyph0-0-0">
        <path
           style="stroke:none"
           d=""
           id="path5067" />
      </symbol>
      <symbol
         overflow="visible"
         id="glyph0-1-5">
        <path
           style="stroke:none"
           d="m 9.140625,-6.8125 c -3.15625,0 -3.15625,-2.40625 -3.15625,-4.015625 0,-1.609375 0,-4.015625 3.15625,-4.015625 3.15625,0 3.15625,2.40625 3.15625,4.015625 0,1.609375 0,4.015625 -3.15625,4.015625 z m -4.375,0.359375 c 1.65625,0.859375 3.484375,0.9375 4.375,0.9375 5.171875,0 7.140625,-2.796875 7.140625,-5.3125 0,-1.6875 -0.890625,-2.875 -1.4375,-3.4375 1.078125,-0.578125 1.828125,-0.65625 2.21875,-0.6875 -0.0625,0.171875 -0.140625,0.5 -0.140625,0.71875 0,0.890625 0.609375,1.546875 1.546875,1.546875 0.9375,0 1.546875,-0.6875 1.546875,-1.546875 0,-0.828125 -0.609375,-2.078125 -2.265625,-2.078125 -0.53125,0 -2.21875,0.109375 -3.796875,1.359375 -0.65625,-0.4375 -2.15625,-1.1875 -4.8125,-1.1875 -5.15625,0 -7.125,2.796875 -7.125,5.3125 0,1.46875 0.703125,2.9375 1.859375,3.765625 -1,1.25 -1.21875,2.4375 -1.21875,3.1875 0,0.546875 0.140625,2.296875 1.578125,3.4375 -0.46875,0.109375 -3.09375,0.875 -3.09375,3.125 0,1.828125 1.984375,4.515625 9.15625,4.515625 6.34375,0 9.140625,-2.109375 9.140625,-4.625 C 19.4375,1.5 19.15625,-0.75 16.75,-1.96875 c -2.015625,-1 -4.15625,-1 -7.609375,-1 -0.921875,0 -2.578125,0 -2.75,-0.046875 -1.578125,-0.25 -1.984375,-1.609375 -1.984375,-2.25 0,-0.359375 0.140625,-0.90625 0.359375,-1.1875 z M 7,0.46875 h 4.1875 c 1.109375,0 5.171875,0 5.171875,2.21875 0,1.296875 -1.40625,3.234375 -6.0625,3.234375 -4.3125,0 -6.0625,-1.65625 -6.0625,-3.296875 0,-2.15625 2.25,-2.15625 2.765625,-2.15625 z m 0,0"
           id="path5070" />
      </symbol>
      <symbol
         overflow="visible"
         id="glyph0-2">
        <path
           style="stroke:none"
           d="M 15.703125,-2.578125 V 0.21875 L 22.046875,0 v -1.6875 c -2.21875,0 -2.46875,0 -2.46875,-1.390625 v -13.0625 l -6.5625,0.296875 v 1.671875 c 2.21875,0 2.46875,0 2.46875,1.40625 v 6.84375 c 0,2.953125 -1.828125,4.84375 -4.4375,4.84375 -2.765625,0 -2.875,-0.890625 -2.875,-2.828125 v -12.234375 l -6.5625,0.296875 v 1.671875 c 2.234375,0 2.484375,0 2.484375,1.40625 v 8.359375 c 0,3.828125 2.90625,4.625 6.453125,4.625 0.921875,0 3.515625,0 5.15625,-2.796875 z m 0,0"
           id="path5073" />
      </symbol>
      <symbol
         overflow="visible"
         id="glyph1-0-2">
        <path
           style="stroke:none"
           d=""
           id="path5076" />
      </symbol>
      <symbol
         overflow="visible"
         id="glyph1-1-3">
        <path
           style="stroke:none"
           d="M 11.875,8.609375 C 11.875,8.5 11.875,8.421875 11.265625,7.8125 6.78125,3.296875 5.625,-3.484375 5.625,-8.96875 c 0,-6.234375 1.375,-12.46875 5.78125,-16.953125 0.46875,-0.4375 0.46875,-0.5 0.46875,-0.609375 0,-0.25 -0.15625,-0.359375 -0.359375,-0.359375 -0.359375,0 -3.59375,2.4375 -5.703125,6.984375 -1.828125,3.953125 -2.265625,7.921875 -2.265625,10.9375 0,2.796875 0.390625,7.140625 2.375,11.1875 2.140625,4.421875 5.234375,6.75 5.59375,6.75 0.203125,0 0.359375,-0.109375 0.359375,-0.359375 z m 0,0"
           id="path5079" />
      </symbol>
      <symbol
         overflow="visible"
         id="glyph1-2-8">
        <path
           style="stroke:none"
           d="m 10.359375,-8.96875 c 0,-2.796875 -0.390625,-7.125 -2.359375,-11.1875 -2.15625,-4.40625 -5.234375,-6.734375 -5.59375,-6.734375 -0.21875,0 -0.359375,0.140625 -0.359375,0.359375 0,0.109375 0,0.171875 0.671875,0.8125 3.515625,3.5625 5.5625,9.265625 5.5625,16.75 0,6.140625 -1.328125,12.453125 -5.765625,16.96875 -0.46875,0.421875 -0.46875,0.5 -0.46875,0.609375 0,0.21875 0.140625,0.359375 0.359375,0.359375 0.359375,0 3.578125,-2.4375 5.703125,-7 1.828125,-3.9375 2.25,-7.921875 2.25,-10.9375 z m 0,0"
           id="path5082" />
      </symbol>
      <symbol
         overflow="visible"
         id="glyph2-0-7">
        <path
           style="stroke:none"
           d=""
           id="path5085" />
      </symbol>
      <symbol
         overflow="visible"
         id="glyph2-1-8">
        <path
           style="stroke:none"
           d="M 7.390625,-14.34375 H 10.75 c 0.71875,0 1.078125,0 1.078125,-0.71875 0,-0.390625 -0.359375,-0.390625 -1,-0.390625 h -3.15625 c 1.296875,-5.09375 1.46875,-5.8125 1.46875,-6.03125 0,-0.609375 -0.421875,-0.96875 -1.03125,-0.96875 C 8,-22.453125 7,-22.40625 6.671875,-21.15625 l -1.40625,5.703125 H 1.90625 c -0.71875,0 -1.078125,0 -1.078125,0.671875 0,0.4375 0.28125,0.4375 1,0.4375 h 3.15625 c -2.578125,10.1875 -2.71875,10.796875 -2.71875,11.4375 0,1.9375 1.359375,3.296875 3.296875,3.296875 3.65625,0 5.703125,-5.234375 5.703125,-5.515625 0,-0.359375 -0.296875,-0.359375 -0.4375,-0.359375 -0.328125,0 -0.359375,0.109375 -0.53125,0.5 C 8.75,-1.25 6.84375,-0.390625 5.625,-0.390625 c -0.75,0 -1.109375,-0.46875 -1.109375,-1.65625 0,-0.859375 0.078125,-1.109375 0.21875,-1.71875 z m 0,0"
           id="path5088" />
      </symbol>
    </g>
    <g
       id="g7048">
      <symbol
         overflow="visible"
         id="glyph0-0-09">
        <path
           style="stroke:none"
           d=""
           id="path6994" />
      </symbol>
      <symbol
         overflow="visible"
         id="glyph0-1-57">
        <path
           style="stroke:none"
           d="m 14.015625,-2.828125 v 3.21875 L 19.1875,0 v -1.109375 c -2.515625,0 -2.796875,-0.25 -2.796875,-2.015625 v -12.71875 l -5.28125,0.390625 v 1.109375 c 2.515625,0 2.796875,0.25 2.796875,2.015625 v 6.375 c 0,3.125 -1.71875,5.5625 -4.328125,5.5625 -3.015625,0 -3.15625,-1.6875 -3.15625,-3.546875 v -11.90625 l -5.28125,0.390625 v 1.109375 c 2.796875,0 2.796875,0.109375 2.796875,3.296875 v 5.375 c 0,2.796875 0,6.0625 5.453125,6.0625 2.015625,0 3.59375,-1 4.625,-3.21875 z m 0,0"
           id="path6997" />
      </symbol>
      <symbol
         overflow="visible"
         id="glyph0-2-2">
        <path
           style="stroke:none"
           d="M 6.171875,-13.484375 V -15.84375 L 1,-15.453125 v 1.109375 c 2.546875,0 2.796875,0.21875 2.796875,1.796875 V 4.234375 C 3.796875,5.84375 3.40625,5.84375 1,5.84375 V 6.953125 C 2.21875,6.921875 4.09375,6.84375 5.015625,6.84375 c 0.96875,0 2.796875,0.078125 4.0625,0.109375 V 5.84375 c -2.40625,0 -2.796875,0 -2.796875,-1.609375 v -6.34375 c 0.171875,0.5625 1.671875,2.5 4.40625,2.5 4.265625,0 8,-3.515625 8,-8.140625 0,-4.546875 -3.484375,-8.09375 -7.5,-8.09375 -2.796875,0 -4.296875,1.578125 -5.015625,2.359375 z M 6.28125,-4.09375 v -7.984375 c 1.03125,-1.828125 2.796875,-2.875 4.625,-2.875 2.609375,0 4.796875,3.15625 4.796875,7.203125 0,4.34375 -2.5,7.359375 -5.15625,7.359375 -1.4375,0 -2.796875,-0.71875 -3.765625,-2.1875 -0.5,-0.75 -0.5,-0.796875 -0.5,-1.515625 z m 0,0"
           id="path7000" />
      </symbol>
      <symbol
         overflow="visible"
         id="glyph0-3">
        <path
           style="stroke:none"
           d="M 13.625,-1.96875 V 0.390625 L 18.890625,0 v -1.109375 c -2.5,0 -2.796875,-0.25 -2.796875,-2.015625 v -21.765625 l -5.15625,0.40625 V -23.375 c 2.515625,0 2.796875,0.25 2.796875,2 v 7.75 c -1.046875,-1.296875 -2.578125,-2.21875 -4.515625,-2.21875 -4.234375,0 -8,3.515625 -8,8.140625 0,4.546875 3.515625,8.09375 7.609375,8.09375 2.28125,0 3.90625,-1.21875 4.796875,-2.359375 z m 0,-9.609375 v 7.34375 c 0,0.65625 0,0.71875 -0.390625,1.328125 C 12.15625,-1.1875 10.546875,-0.390625 9,-0.390625 c -1.609375,0 -2.90625,-0.9375 -3.765625,-2.296875 -0.9375,-1.46875 -1.03125,-3.515625 -1.03125,-4.984375 0,-1.328125 0.0625,-3.484375 1.109375,-5.09375 0.75,-1.109375 2.109375,-2.296875 4.046875,-2.296875 1.25,0 2.765625,0.546875 3.875,2.15625 0.390625,0.609375 0.390625,0.671875 0.390625,1.328125 z m 0,0"
           id="path7003" />
      </symbol>
      <symbol
         overflow="visible"
         id="glyph0-4">
        <path
           style="stroke:none"
           d="m 16.890625,-7.671875 c 0,-4.59375 -3.59375,-8.390625 -7.921875,-8.390625 C 4.484375,-16.0625 1,-12.15625 1,-7.671875 c 0,4.625 3.734375,8.0625 7.921875,8.0625 4.34375,0 7.96875,-3.515625 7.96875,-8.0625 z M 8.96875,-0.5 C 7.421875,-0.5 5.84375,-1.25 4.875,-2.90625 3.984375,-4.484375 3.984375,-6.671875 3.984375,-7.953125 c 0,-1.40625 0,-3.34375 0.859375,-4.921875 0.96875,-1.640625 2.65625,-2.40625 4.078125,-2.40625 1.578125,0 3.125,0.796875 4.0625,2.34375 0.921875,1.53125 0.921875,3.609375 0.921875,4.984375 0,1.28125 0,3.21875 -0.78125,4.796875 C 12.328125,-1.546875 10.75,-0.5 8.96875,-0.5 Z m 0,0"
           id="path7006" />
      </symbol>
      <symbol
         overflow="visible"
         id="glyph0-5">
        <path
           style="stroke:none"
           d="m 22.203125,-12.046875 c 0.640625,-1.796875 1.75,-2.265625 3,-2.296875 v -1.109375 c -0.78125,0.0625 -1.828125,0.109375 -2.609375,0.109375 -1.046875,0 -2.65625,-0.07813 -3.34375,-0.109375 v 1.109375 c 1.296875,0.03125 2.09375,0.6875 2.09375,1.71875 0,0.21875 0,0.296875 -0.1875,0.75 l -3.265625,9.1875 -3.546875,-10 c -0.140625,-0.4375 -0.171875,-0.515625 -0.171875,-0.6875 0,-0.96875 1.390625,-0.96875 2.109375,-0.96875 v -1.109375 c -1.046875,0.03125 -2.875,0.109375 -3.734375,0.109375 -1.078125,0 -2.109375,-0.04687 -3.1875,-0.109375 v 1.109375 c 1.328125,0 1.90625,0.07813 2.265625,0.53125 0.171875,0.21875 0.5625,1.296875 0.8125,1.984375 l -3.078125,8.671875 -3.40625,-9.578125 c -0.1875,-0.421875 -0.1875,-0.5 -0.1875,-0.640625 0,-0.96875 1.40625,-0.96875 2.125,-0.96875 v -1.109375 c -1.078125,0.03125 -3.078125,0.109375 -3.90625,0.109375 -0.140625,0 -2.046875,-0.04687 -3.34375,-0.109375 v 1.109375 c 1.796875,0 2.234375,0.109375 2.65625,1.25 L 7.8125,-0.390625 c 0.1875,0.5 0.296875,0.78125 0.765625,0.78125 0.453125,0 0.53125,-0.21875 0.703125,-0.71875 l 3.625,-10.140625 3.65625,10.1875 c 0.140625,0.390625 0.25,0.671875 0.71875,0.671875 0.46875,0 0.578125,-0.3125 0.71875,-0.671875 z m 0,0"
           id="path7009" />
      </symbol>
      <symbol
         overflow="visible"
         id="glyph0-6">
        <path
           style="stroke:none"
           d="m 3.9375,-12.328125 v 9.609375 c 0,1.609375 -0.390625,1.609375 -2.796875,1.609375 V 0 C 2.40625,-0.03125 4.234375,-0.109375 5.203125,-0.109375 6.125,-0.109375 8,-0.03125 9.21875,0 v -1.109375 c -2.40625,0 -2.796875,0 -2.796875,-1.609375 v -6.609375 c 0,-3.71875 2.546875,-5.734375 4.84375,-5.734375 2.25,0 2.640625,1.9375 2.640625,3.984375 v 8.359375 c 0,1.609375 -0.390625,1.609375 -2.796875,1.609375 V 0 c 1.265625,-0.03125 3.09375,-0.109375 4.0625,-0.109375 0.921875,0 2.796875,0.078125 4.015625,0.109375 v -1.109375 c -1.875,0 -2.765625,0 -2.796875,-1.078125 v -6.84375 c 0,-3.09375 0,-4.203125 -1.109375,-5.484375 -0.5,-0.609375 -1.6875,-1.328125 -3.765625,-1.328125 -2.625,0 -4.3125,1.53125 -5.3125,3.765625 v -3.765625 l -5.0625,0.390625 v 1.109375 c 2.515625,0 2.796875,0.25 2.796875,2.015625 z m 0,0"
           id="path7012" />
      </symbol>
      <symbol
         overflow="visible"
         id="glyph0-7">
        <path
           style="stroke:none"
           d="M 7.453125,-6.953125 C 8.25,-6.8125 11.1875,-6.234375 11.1875,-3.65625 c 0,1.828125 -1.25,3.265625 -4.046875,3.265625 -3.015625,0 -4.3125,-2.046875 -4.984375,-5.09375 -0.109375,-0.46875 -0.140625,-0.609375 -0.5,-0.609375 -0.46875,0 -0.46875,0.25 -0.46875,0.890625 v 4.734375 c 0,0.609375 0,0.859375 0.390625,0.859375 0.171875,0 0.21875,-0.03125 0.890625,-0.71875 0.078125,-0.0625 0.078125,-0.140625 0.71875,-0.8125 1.578125,1.5 3.203125,1.53125 3.953125,1.53125 4.125,0 5.765625,-2.40625 5.765625,-4.984375 0,-1.890625 -1.078125,-2.96875 -1.5,-3.40625 -1.1875,-1.140625 -2.578125,-1.4375 -4.09375,-1.71875 -2,-0.390625 -4.40625,-0.859375 -4.40625,-2.9375 0,-1.25 0.9375,-2.734375 4.015625,-2.734375 3.9375,0 4.125,3.234375 4.1875,4.34375 0.04687,0.328125 0.359375,0.328125 0.4375,0.328125 0.46875,0 0.46875,-0.1875 0.46875,-0.859375 v -3.625 c 0,-0.609375 0,-0.859375 -0.390625,-0.859375 -0.1875,0 -0.25,0 -0.71875,0.421875 -0.109375,0.15625 -0.46875,0.46875 -0.609375,0.578125 -1.375,-1 -2.84375,-1 -3.375,-1 -4.375,0 -5.734375,2.40625 -5.734375,4.40625 0,1.25 0.5625,2.265625 1.53125,3.046875 1.15625,0.9375 2.15625,1.15625 4.734375,1.65625 z m 0,0"
           id="path7015" />
      </symbol>
      <symbol
         overflow="visible"
         id="glyph0-8">
        <path
           style="stroke:none"
           d="m 14.875,-12.046875 c 0.9375,-2.265625 2.765625,-2.296875 3.34375,-2.296875 v -1.109375 c -0.828125,0.0625 -1.859375,0.109375 -2.6875,0.109375 -0.65625,0 -2.328125,-0.07813 -3.125,-0.109375 v 1.109375 c 1.109375,0.03125 1.6875,0.640625 1.6875,1.546875 0,0.359375 -0.03125,0.421875 -0.21875,0.859375 L 10.25,-3.125 6.28125,-12.765625 C 6.125,-13.125 6.0625,-13.265625 6.0625,-13.40625 c 0,-0.9375 1.328125,-0.9375 2,-0.9375 v -1.109375 c -0.921875,0.03125 -3.296875,0.109375 -3.90625,0.109375 -0.96875,0 -2.40625,-0.04687 -3.46875,-0.109375 v 1.109375 c 1.71875,0 2.390625,0 2.890625,1.25 L 8.96875,0 C 8.78125,0.46875 8.28125,1.65625 8.0625,2.109375 7.28125,4.09375 6.28125,6.5625 3.984375,6.5625 c -0.1875,0 -1.015625,0 -1.6875,-0.640625 C 3.40625,5.765625 3.6875,4.984375 3.6875,4.40625 c 0,-0.921875 -0.671875,-1.5 -1.5,-1.5 -0.71875,0 -1.5,0.46875 -1.5,1.546875 0,1.609375 1.5,2.890625 3.296875,2.890625 2.25,0 3.71875,-2.03125 4.59375,-4.078125 z m 0,0"
           id="path7018" />
      </symbol>
      <symbol
         overflow="visible"
         id="glyph0-9">
        <path
           style="stroke:none"
           d="m 3.9375,-12.328125 v 9.609375 c 0,1.609375 -0.390625,1.609375 -2.796875,1.609375 V 0 C 2.40625,-0.03125 4.234375,-0.109375 5.203125,-0.109375 6.125,-0.109375 8,-0.03125 9.21875,0 v -1.109375 c -2.40625,0 -2.796875,0 -2.796875,-1.609375 v -6.609375 c 0,-3.71875 2.546875,-5.734375 4.84375,-5.734375 2.25,0 2.640625,1.9375 2.640625,3.984375 v 8.359375 c 0,1.609375 -0.390625,1.609375 -2.796875,1.609375 V 0 c 1.265625,-0.03125 3.09375,-0.109375 4.0625,-0.109375 0.921875,0 2.796875,0.078125 4.015625,0.109375 v -1.109375 c -2.40625,0 -2.796875,0 -2.796875,-1.609375 v -6.609375 c 0,-3.71875 2.546875,-5.734375 4.84375,-5.734375 2.25,0 2.640625,1.9375 2.640625,3.984375 v 8.359375 c 0,1.609375 -0.390625,1.609375 -2.796875,1.609375 V 0 c 1.265625,-0.03125 3.09375,-0.109375 4.0625,-0.109375 0.921875,0 2.796875,0.078125 4.015625,0.109375 v -1.109375 c -1.875,0 -2.765625,0 -2.796875,-1.078125 v -6.84375 c 0,-3.09375 0,-4.203125 -1.109375,-5.484375 -0.5,-0.609375 -1.6875,-1.328125 -3.765625,-1.328125 -3.015625,0 -4.59375,2.140625 -5.203125,3.515625 -0.5,-3.125 -3.15625,-3.515625 -4.765625,-3.515625 -2.625,0 -4.3125,1.53125 -5.3125,3.765625 v -3.765625 l -5.0625,0.390625 v 1.109375 c 2.515625,0 2.796875,0.25 2.796875,2.015625 z m 0,0"
           id="path7021" />
      </symbol>
      <symbol
         overflow="visible"
         id="glyph0-10">
        <path
           style="stroke:none"
           d="m 4.015625,-9.03125 c 0.21875,-5.34375 3.234375,-6.25 4.453125,-6.25 3.6875,0 4.046875,4.84375 4.046875,6.25 z m -0.03125,0.75 h 10 c 0.796875,0 0.890625,0 0.890625,-0.75 0,-3.5625 -1.9375,-7.03125 -6.40625,-7.03125 C 4.296875,-16.0625 1,-12.375 1,-7.890625 c 0,4.8125 3.765625,8.28125 7.890625,8.28125 4.375,0 5.984375,-3.96875 5.984375,-4.65625 0,-0.359375 -0.28125,-0.4375 -0.453125,-0.4375 -0.328125,0 -0.40625,0.21875 -0.46875,0.5 C 12.6875,-0.5 9.46875,-0.5 9.109375,-0.5 7.3125,-0.5 5.875,-1.578125 5.0625,-2.90625 3.984375,-4.625 3.984375,-7 3.984375,-8.28125 Z m 0,0"
           id="path7024" />
      </symbol>
      <symbol
         overflow="visible"
         id="glyph0-11">
        <path
           style="stroke:none"
           d="m 6.203125,-14.34375 h 5.125 v -1.109375 h -5.125 v -6.59375 H 5.3125 c -0.046875,2.9375 -1.109375,6.765625 -4.625,6.921875 v 0.78125 h 3.046875 v 9.890625 c 0,4.421875 3.328125,4.84375 4.625,4.84375 2.546875,0 3.546875,-2.546875 3.546875,-4.84375 v -2.03125 h -0.890625 v 1.96875 c 0,2.65625 -1.078125,4.015625 -2.40625,4.015625 -2.40625,0 -2.40625,-3.265625 -2.40625,-3.875 z m 0,0"
           id="path7027" />
      </symbol>
      <symbol
         overflow="visible"
         id="glyph0-12">
        <path
           style="stroke:none"
           d="m 5.984375,-11.90625 v -3.9375 L 1,-15.453125 v 1.109375 c 2.515625,0 2.796875,0.25 2.796875,2.015625 V -2.71875 C 3.796875,-1.109375 3.40625,-1.109375 1,-1.109375 V 0 c 1.40625,-0.03125 3.09375,-0.109375 4.09375,-0.109375 1.4375,0 3.125,0 4.546875,0.109375 v -1.109375 h -0.75 c -2.65625,0 -2.71875,-0.390625 -2.71875,-1.6875 V -8.3125 c 0,-3.5625 1.5,-6.75 4.234375,-6.75 0.25,0 0.3125,0 0.390625,0.03125 -0.109375,0.04687 -0.828125,0.46875 -0.828125,1.40625 0,1 0.75,1.546875 1.546875,1.546875 0.640625,0 1.53125,-0.4375 1.53125,-1.578125 0,-1.15625 -1.109375,-2.1875 -2.640625,-2.1875 -2.625,0 -3.921875,2.390625 -4.421875,3.9375 z m 0,0"
           id="path7030" />
      </symbol>
      <symbol
         overflow="visible"
         id="glyph0-13">
        <path
           style="stroke:none"
           d="m 14.921875,-11.9375 c 0.3125,-0.828125 0.921875,-2.375 3.296875,-2.40625 v -1.109375 c -0.828125,0.0625 -1.859375,0.109375 -2.6875,0.109375 -0.859375,0 -2.515625,-0.07813 -3.125,-0.109375 v 1.109375 c 1.328125,0.03125 1.71875,0.859375 1.71875,1.546875 0,0.3125 -0.0625,0.46875 -0.21875,0.859375 l -3.65625,9.140625 -4.015625,-10 C 6.03125,-13.265625 6.03125,-13.34375 6.03125,-13.40625 c 0,-0.9375 1.390625,-0.9375 2.03125,-0.9375 v -1.109375 C 7,-15.421875 4.984375,-15.34375 4.15625,-15.34375 c -0.96875,0 -2.40625,-0.04687 -3.46875,-0.109375 v 1.109375 c 2.25,0 2.390625,0.21875 2.859375,1.328125 L 8.71875,-0.28125 c 0.203125,0.5 0.28125,0.671875 0.75,0.671875 0.46875,0 0.609375,-0.3125 0.75,-0.671875 z m 0,0"
           id="path7033" />
      </symbol>
      <symbol
         overflow="visible"
         id="glyph1-0-9">
        <path
           style="stroke:none"
           d=""
           id="path7036" />
      </symbol>
      <symbol
         overflow="visible"
         id="glyph1-1-7">
        <path
           style="stroke:none"
           d="m 15.75,-25.53125 c 0.171875,-0.46875 0.171875,-0.609375 0.171875,-0.640625 0,-0.40625 -0.328125,-0.71875 -0.71875,-0.71875 -0.25,0 -0.5,0.109375 -0.609375,0.3125 L 2.15625,7.609375 C 1.96875,8.0625 1.96875,8.21875 1.96875,8.25 c 0,0.390625 0.328125,0.71875 0.71875,0.71875 0.46875,0 0.578125,-0.25 0.796875,-0.859375 z m 0,0"
           id="path7039" />
      </symbol>
      <symbol
         overflow="visible"
         id="glyph2-0-6">
        <path
           style="stroke:none"
           d=""
           id="path7042" />
      </symbol>
      <symbol
         overflow="visible"
         id="glyph2-1-82">
        <path
           style="stroke:none"
           d="m 9.140625,-6.8125 c -3.15625,0 -3.15625,-2.40625 -3.15625,-4.015625 0,-1.609375 0,-4.015625 3.15625,-4.015625 3.15625,0 3.15625,2.40625 3.15625,4.015625 0,1.609375 0,4.015625 -3.15625,4.015625 z m -4.375,0.359375 c 1.65625,0.859375 3.484375,0.9375 4.375,0.9375 5.171875,0 7.140625,-2.796875 7.140625,-5.3125 0,-1.6875 -0.890625,-2.875 -1.4375,-3.4375 1.078125,-0.578125 1.828125,-0.65625 2.21875,-0.6875 -0.0625,0.171875 -0.140625,0.5 -0.140625,0.71875 0,0.890625 0.609375,1.546875 1.546875,1.546875 0.9375,0 1.546875,-0.6875 1.546875,-1.546875 0,-0.828125 -0.609375,-2.078125 -2.265625,-2.078125 -0.53125,0 -2.21875,0.109375 -3.796875,1.359375 -0.65625,-0.4375 -2.15625,-1.1875 -4.8125,-1.1875 -5.15625,0 -7.125,2.796875 -7.125,5.3125 0,1.46875 0.703125,2.9375 1.859375,3.765625 -1,1.25 -1.21875,2.4375 -1.21875,3.1875 0,0.546875 0.140625,2.296875 1.578125,3.4375 -0.46875,0.109375 -3.09375,0.875 -3.09375,3.125 0,1.828125 1.984375,4.515625 9.15625,4.515625 6.34375,0 9.140625,-2.109375 9.140625,-4.625 C 19.4375,1.5 19.15625,-0.75 16.75,-1.96875 c -2.015625,-1 -4.15625,-1 -7.609375,-1 -0.921875,0 -2.578125,0 -2.75,-0.046875 -1.578125,-0.25 -1.984375,-1.609375 -1.984375,-2.25 0,-0.359375 0.140625,-0.90625 0.359375,-1.1875 z M 7,0.46875 h 4.1875 c 1.109375,0 5.171875,0 5.171875,2.21875 0,1.296875 -1.40625,3.234375 -6.0625,3.234375 -4.3125,0 -6.0625,-1.65625 -6.0625,-3.296875 0,-2.15625 2.25,-2.15625 2.765625,-2.15625 z m 0,0"
           id="path7045" />
      </symbol>
    </g>
    <g
       id="g11310">
      <symbol
         overflow="visible"
         id="glyph0-0-1">
        <path
           style="stroke:none"
           d=""
           id="path11289" />
      </symbol>
      <symbol
         overflow="visible"
         id="glyph0-1-9">
        <path
           style="stroke:none"
           d="M 11.875,8.609375 C 11.875,8.5 11.875,8.421875 11.265625,7.8125 6.78125,3.296875 5.625,-3.484375 5.625,-8.96875 c 0,-6.234375 1.375,-12.46875 5.78125,-16.953125 0.46875,-0.4375 0.46875,-0.5 0.46875,-0.609375 0,-0.25 -0.15625,-0.359375 -0.359375,-0.359375 -0.359375,0 -3.59375,2.4375 -5.703125,6.984375 -1.828125,3.953125 -2.265625,7.921875 -2.265625,10.9375 0,2.796875 0.390625,7.140625 2.375,11.1875 2.140625,4.421875 5.234375,6.75 5.59375,6.75 0.203125,0 0.359375,-0.109375 0.359375,-0.359375 z m 0,0"
           id="path11292" />
      </symbol>
      <symbol
         overflow="visible"
         id="glyph0-2-0">
        <path
           style="stroke:none"
           d="m 10.359375,-8.96875 c 0,-2.796875 -0.390625,-7.125 -2.359375,-11.1875 -2.15625,-4.40625 -5.234375,-6.734375 -5.59375,-6.734375 -0.21875,0 -0.359375,0.140625 -0.359375,0.359375 0,0.109375 0,0.171875 0.671875,0.8125 3.515625,3.5625 5.5625,9.265625 5.5625,16.75 0,6.140625 -1.328125,12.453125 -5.765625,16.96875 -0.46875,0.421875 -0.46875,0.5 -0.46875,0.609375 0,0.21875 0.140625,0.359375 0.359375,0.359375 0.359375,0 3.578125,-2.4375 5.703125,-7 1.828125,-3.9375 2.25,-7.921875 2.25,-10.9375 z m 0,0"
           id="path11295" />
      </symbol>
      <symbol
         overflow="visible"
         id="glyph1-0-6">
        <path
           style="stroke:none"
           d=""
           id="path11298" />
      </symbol>
      <symbol
         overflow="visible"
         id="glyph1-1-1">
        <path
           style="stroke:none"
           d="m 13.375,-13.5625 c -0.640625,-1.3125 -1.6875,-2.28125 -3.296875,-2.28125 -4.203125,0 -8.640625,5.265625 -8.640625,10.5 0,3.375 1.96875,5.734375 4.765625,5.734375 0.71875,0 2.515625,-0.140625 4.65625,-2.6875 0.296875,1.515625 1.546875,2.6875 3.265625,2.6875 1.265625,0 2.078125,-0.828125 2.65625,-1.96875 C 17.390625,-2.875 17.859375,-5.0625 17.859375,-5.125 c 0,-0.359375 -0.328125,-0.359375 -0.4375,-0.359375 -0.359375,0 -0.390625,0.140625 -0.5,0.640625 -0.609375,2.328125 -1.25,4.453125 -2.71875,4.453125 -0.96875,0 -1.078125,-0.9375 -1.078125,-1.65625 0,-0.78125 0.07813,-1.078125 0.46875,-2.65625 0.390625,-1.5 0.46875,-1.859375 0.78125,-3.21875 l 1.296875,-5.015625 c 0.25,-1.015625 0.25,-1.078125 0.25,-1.234375 0,-0.609375 -0.4375,-0.953125 -1.046875,-0.953125 -0.859375,0 -1.390625,0.78125 -1.5,1.5625 z m -2.328125,9.296875 c -0.1875,0.640625 -0.1875,0.71875 -0.71875,1.328125 C 8.75,-0.96875 7.28125,-0.390625 6.28125,-0.390625 c -1.796875,0 -2.296875,-1.96875 -2.296875,-3.375 0,-1.796875 1.140625,-6.203125 1.96875,-7.859375 1.109375,-2.109375 2.71875,-3.4375 4.15625,-3.4375 2.328125,0 2.828125,2.9375 2.828125,3.15625 0,0.21875 -0.0625,0.4375 -0.09375,0.609375 z m 0,0"
           id="path11301" />
      </symbol>
      <symbol
         overflow="visible"
         id="glyph1-2-7">
        <path
           style="stroke:none"
           d="m 8.578125,-24.484375 c 0,-0.04687 0,-0.40625 -0.46875,-0.40625 -0.828125,0 -3.453125,0.296875 -4.375,0.359375 -0.296875,0.04687 -0.6875,0.07813 -0.6875,0.71875 0,0.4375 0.328125,0.4375 0.859375,0.4375 1.71875,0 1.796875,0.25 1.796875,0.609375 0,0.25 -0.328125,1.46875 -0.5,2.21875 l -2.9375,11.6875 c -0.4375,1.796875 -0.578125,2.375 -0.578125,3.625 0,3.40625 1.890625,5.625 4.546875,5.625 4.234375,0 8.640625,-5.34375 8.640625,-10.5 0,-3.265625 -1.890625,-5.734375 -4.765625,-5.734375 -1.640625,0 -3.109375,1.03125 -4.1875,2.140625 z m -3.375,13.546875 c 0.21875,-0.78125 0.21875,-0.859375 0.53125,-1.25 1.765625,-2.328125 3.375,-2.875 4.3125,-2.875 1.28125,0 2.25,1.078125 2.25,3.375 0,2.109375 -1.1875,6.234375 -1.828125,7.59375 -1.1875,2.40625 -2.828125,3.703125 -4.234375,3.703125 -1.21875,0 -2.390625,-0.96875 -2.390625,-3.625 0,-0.6875 0,-1.359375 0.5625,-3.625 z m 0,0"
           id="path11304" />
      </symbol>
      <symbol
         overflow="visible"
         id="glyph1-3">
        <path
           style="stroke:none"
           d="m 14.203125,-13.625 c -0.578125,0 -1.078125,0 -1.578125,0.5 -0.578125,0.53125 -0.640625,1.140625 -0.640625,1.40625 0,0.859375 0.640625,1.25 1.3125,1.25 1.046875,0 2.015625,-0.859375 2.015625,-2.296875 0,-1.75 -1.6875,-3.078125 -4.234375,-3.078125 -4.84375,0 -9.609375,5.125 -9.609375,10.171875 0,3.234375 2.078125,6.0625 5.8125,6.0625 5.125,0 8.140625,-3.796875 8.140625,-4.234375 0,-0.203125 -0.21875,-0.453125 -0.4375,-0.453125 -0.171875,0 -0.25,0.0625 -0.46875,0.359375 -2.828125,3.546875 -6.734375,3.546875 -7.171875,3.546875 -2.25,0 -3.21875,-1.765625 -3.21875,-3.90625 0,-1.46875 0.71875,-4.953125 1.9375,-7.171875 1.109375,-2.046875 3.078125,-3.59375 5.046875,-3.59375 1.21875,0 2.59375,0.46875 3.09375,1.4375 z m 0,0"
           id="path11307" />
      </symbol>
    </g>
    <g
       id="g3007">
      <symbol
         overflow="visible"
         id="glyph0-0-5">
        <path
           style="stroke:none"
           d=""
           id="path2947" />
      </symbol>
      <symbol
         overflow="visible"
         id="glyph0-1-4">
        <path
           style="stroke:none"
           d="m 6.171875,-13.515625 v -11.375 L 1,-24.484375 V -23.375 c 2.515625,0 2.796875,0.25 2.796875,2 V 0 h 0.90625 c 0.03125,-0.03125 0.3125,-0.53125 1.28125,-2.21875 0.546875,0.8125 2.046875,2.609375 4.703125,2.609375 4.265625,0 8,-3.515625 8,-8.140625 0,-4.546875 -3.515625,-8.09375 -7.609375,-8.09375 -2.796875,0 -4.34375,1.671875 -4.90625,2.328125 z M 6.28125,-4.09375 v -7.375 c 0,-0.6875 0,-0.71875 0.390625,-1.296875 1.390625,-2.015625 3.375,-2.296875 4.234375,-2.296875 1.609375,0 2.90625,0.9375 3.765625,2.296875 0.921875,1.46875 1.03125,3.515625 1.03125,4.984375 0,1.328125 -0.0625,3.484375 -1.109375,5.09375 -0.75,1.109375 -2.109375,2.296875 -4.046875,2.296875 -1.625,0 -2.90625,-0.859375 -3.765625,-2.1875 -0.5,-0.75 -0.5,-0.859375 -0.5,-1.515625 z m 0,0"
           id="path2950" />
      </symbol>
      <symbol
         overflow="visible"
         id="glyph0-2-21">
        <path
           style="stroke:none"
           d="m 14.015625,-2.828125 v 3.21875 L 19.1875,0 v -1.109375 c -2.515625,0 -2.796875,-0.25 -2.796875,-2.015625 v -12.71875 l -5.28125,0.390625 v 1.109375 c 2.515625,0 2.796875,0.25 2.796875,2.015625 v 6.375 c 0,3.125 -1.71875,5.5625 -4.328125,5.5625 -3.015625,0 -3.15625,-1.6875 -3.15625,-3.546875 v -11.90625 l -5.28125,0.390625 v 1.109375 c 2.796875,0 2.796875,0.109375 2.796875,3.296875 v 5.375 c 0,2.796875 0,6.0625 5.453125,6.0625 2.015625,0 3.59375,-1 4.625,-3.21875 z m 0,0"
           id="path2953" />
      </symbol>
      <symbol
         overflow="visible"
         id="glyph0-3-9">
        <path
           style="stroke:none"
           d="m 16.890625,-7.671875 c 0,-4.59375 -3.59375,-8.390625 -7.921875,-8.390625 C 4.484375,-16.0625 1,-12.15625 1,-7.671875 c 0,4.625 3.734375,8.0625 7.921875,8.0625 4.34375,0 7.96875,-3.515625 7.96875,-8.0625 z M 8.96875,-0.5 C 7.421875,-0.5 5.84375,-1.25 4.875,-2.90625 3.984375,-4.484375 3.984375,-6.671875 3.984375,-7.953125 c 0,-1.40625 0,-3.34375 0.859375,-4.921875 0.96875,-1.640625 2.65625,-2.40625 4.078125,-2.40625 1.578125,0 3.125,0.796875 4.0625,2.34375 0.921875,1.53125 0.921875,3.609375 0.921875,4.984375 0,1.28125 0,3.21875 -0.78125,4.796875 C 12.328125,-1.546875 10.75,-0.5 8.96875,-0.5 Z m 0,0"
           id="path2956" />
      </symbol>
      <symbol
         overflow="visible"
         id="glyph0-4-2">
        <path
           style="stroke:none"
           d="m 14.875,-12.046875 c 0.9375,-2.265625 2.765625,-2.296875 3.34375,-2.296875 v -1.109375 c -0.828125,0.0625 -1.859375,0.109375 -2.6875,0.109375 -0.65625,0 -2.328125,-0.07813 -3.125,-0.109375 v 1.109375 c 1.109375,0.03125 1.6875,0.640625 1.6875,1.546875 0,0.359375 -0.03125,0.421875 -0.21875,0.859375 L 10.25,-3.125 6.28125,-12.765625 C 6.125,-13.125 6.0625,-13.265625 6.0625,-13.40625 c 0,-0.9375 1.328125,-0.9375 2,-0.9375 v -1.109375 c -0.921875,0.03125 -3.296875,0.109375 -3.90625,0.109375 -0.96875,0 -2.40625,-0.04687 -3.46875,-0.109375 v 1.109375 c 1.71875,0 2.390625,0 2.890625,1.25 L 8.96875,0 C 8.78125,0.46875 8.28125,1.65625 8.0625,2.109375 7.28125,4.09375 6.28125,6.5625 3.984375,6.5625 c -0.1875,0 -1.015625,0 -1.6875,-0.640625 C 3.40625,5.765625 3.6875,4.984375 3.6875,4.40625 c 0,-0.921875 -0.671875,-1.5 -1.5,-1.5 -0.71875,0 -1.5,0.46875 -1.5,1.546875 0,1.609375 1.5,2.890625 3.296875,2.890625 2.25,0 3.71875,-2.03125 4.59375,-4.078125 z m 0,0"
           id="path2959" />
      </symbol>
      <symbol
         overflow="visible"
         id="glyph0-5-4">
        <path
           style="stroke:none"
           d="m 11.9375,-2.71875 c 0.140625,1.421875 1.109375,2.9375 2.796875,2.9375 0.75,0 2.9375,-0.5 2.9375,-3.40625 V -5.203125 H 16.78125 V -3.1875 c 0,2.078125 -0.890625,2.296875 -1.296875,2.296875 -1.171875,0 -1.3125,-1.625 -1.3125,-1.796875 v -7.171875 c 0,-1.515625 0,-2.90625 -1.296875,-4.234375 -1.40625,-1.390625 -3.1875,-1.96875 -4.921875,-1.96875 -2.9375,0 -5.40625,1.6875 -5.40625,4.046875 0,1.078125 0.71875,1.6875 1.65625,1.6875 1,0 1.640625,-0.71875 1.640625,-1.65625 0,-0.421875 -0.171875,-1.609375 -1.828125,-1.640625 0.96875,-1.25 2.71875,-1.65625 3.875,-1.65625 1.75,0 3.796875,1.40625 3.796875,4.59375 v 1.328125 C 9.859375,-9.25 7.34375,-9.140625 5.09375,-8.0625 2.40625,-6.84375 1.5,-4.984375 1.5,-3.40625 1.5,-0.5 4.984375,0.390625 7.25,0.390625 c 2.359375,0 4.015625,-1.4375 4.6875,-3.109375 z m -0.25,-5.890625 v 3.59375 c 0,3.40625 -2.578125,4.625 -4.1875,4.625 -1.765625,0 -3.234375,-1.265625 -3.234375,-3.046875 0,-1.984375 1.5,-4.953125 7.421875,-5.171875 z m 0,0"
           id="path2962" />
      </symbol>
      <symbol
         overflow="visible"
         id="glyph0-6-5">
        <path
           style="stroke:none"
           d="m 3.9375,-12.328125 v 9.609375 c 0,1.609375 -0.390625,1.609375 -2.796875,1.609375 V 0 C 2.40625,-0.03125 4.234375,-0.109375 5.203125,-0.109375 6.125,-0.109375 8,-0.03125 9.21875,0 v -1.109375 c -2.40625,0 -2.796875,0 -2.796875,-1.609375 v -6.609375 c 0,-3.71875 2.546875,-5.734375 4.84375,-5.734375 2.25,0 2.640625,1.9375 2.640625,3.984375 v 8.359375 c 0,1.609375 -0.390625,1.609375 -2.796875,1.609375 V 0 c 1.265625,-0.03125 3.09375,-0.109375 4.0625,-0.109375 0.921875,0 2.796875,0.078125 4.015625,0.109375 v -1.109375 c -1.875,0 -2.765625,0 -2.796875,-1.078125 v -6.84375 c 0,-3.09375 0,-4.203125 -1.109375,-5.484375 -0.5,-0.609375 -1.6875,-1.328125 -3.765625,-1.328125 -2.625,0 -4.3125,1.53125 -5.3125,3.765625 v -3.765625 l -5.0625,0.390625 v 1.109375 c 2.515625,0 2.796875,0.25 2.796875,2.015625 z m 0,0"
           id="path2965" />
      </symbol>
      <symbol
         overflow="visible"
         id="glyph0-7-8">
        <path
           style="stroke:none"
           d="m 4.203125,-7.8125 c 0,-5.84375 2.9375,-7.359375 4.828125,-7.359375 0.328125,0 2.59375,0.04687 3.84375,1.328125 -1.46875,0.109375 -1.6875,1.1875 -1.6875,1.65625 0,0.921875 0.640625,1.640625 1.65625,1.640625 0.921875,0 1.640625,-0.609375 1.640625,-1.6875 0,-2.4375 -2.71875,-3.828125 -5.484375,-3.828125 -4.484375,0 -7.78125,3.875 -7.78125,8.3125 0,4.59375 3.546875,8.140625 7.703125,8.140625 4.8125,0 5.953125,-4.296875 5.953125,-4.65625 0,-0.359375 -0.359375,-0.359375 -0.453125,-0.359375 -0.328125,0 -0.40625,0.140625 -0.46875,0.359375 C 12.90625,-0.9375 10.578125,-0.5 9.25,-0.5 7.34375,-0.5 4.203125,-2.046875 4.203125,-7.8125 Z m 0,0"
           id="path2968" />
      </symbol>
      <symbol
         overflow="visible"
         id="glyph0-8-6">
        <path
           style="stroke:none"
           d="m 6.28125,-15.453125 v -4.15625 c 0,-3.15625 1.71875,-4.875 3.296875,-4.875 0.109375,0 0.640625,0 1.171875,0.25 -0.421875,0.140625 -1.0625,0.609375 -1.0625,1.5 0,0.828125 0.5625,1.546875 1.53125,1.546875 1.046875,0 1.578125,-0.71875 1.578125,-1.578125 0,-1.328125 -1.328125,-2.515625 -3.21875,-2.515625 -2.515625,0 -5.5625,1.90625 -5.5625,5.703125 v 4.125 H 1.1875 v 1.109375 h 2.828125 v 11.625 c 0,1.609375 -0.390625,1.609375 -2.796875,1.609375 V 0 C 2.625,-0.03125 4.296875,-0.109375 5.3125,-0.109375 c 1.421875,0 3.109375,0 4.546875,0.109375 v -1.109375 h -0.75 c -2.65625,0 -2.71875,-0.390625 -2.71875,-1.6875 V -14.34375 h 4.078125 v -1.109375 z m 0,0"
           id="path2971" />
      </symbol>
      <symbol
         overflow="visible"
         id="glyph0-9-2">
        <path
           style="stroke:none"
           d="m 6.203125,-14.34375 h 5.125 v -1.109375 h -5.125 v -6.59375 H 5.3125 c -0.046875,2.9375 -1.109375,6.765625 -4.625,6.921875 v 0.78125 h 3.046875 v 9.890625 c 0,4.421875 3.328125,4.84375 4.625,4.84375 2.546875,0 3.546875,-2.546875 3.546875,-4.84375 v -2.03125 h -0.890625 v 1.96875 c 0,2.65625 -1.078125,4.015625 -2.40625,4.015625 -2.40625,0 -2.40625,-3.265625 -2.40625,-3.875 z m 0,0"
           id="path2974" />
      </symbol>
      <symbol
         overflow="visible"
         id="glyph0-10-5">
        <path
           style="stroke:none"
           d="m 3.9375,-2.71875 c 0,1.609375 -0.390625,1.609375 -2.796875,1.609375 V 0 C 2.40625,-0.03125 4.234375,-0.109375 5.203125,-0.109375 6.125,-0.109375 8,-0.03125 9.21875,0 v -1.109375 c -2.40625,0 -2.796875,0 -2.796875,-1.609375 v -6.609375 c 0,-3.71875 2.546875,-5.734375 4.84375,-5.734375 2.25,0 2.640625,1.9375 2.640625,3.984375 v 8.359375 c 0,1.609375 -0.390625,1.609375 -2.796875,1.609375 V 0 c 1.265625,-0.03125 3.09375,-0.109375 4.0625,-0.109375 0.921875,0 2.796875,0.078125 4.015625,0.109375 v -1.109375 c -1.875,0 -2.765625,0 -2.796875,-1.078125 v -6.84375 c 0,-3.09375 0,-4.203125 -1.109375,-5.484375 -0.5,-0.609375 -1.6875,-1.328125 -3.765625,-1.328125 -3.015625,0 -4.59375,2.140625 -5.203125,3.515625 v -12.5625 l -5.171875,0.40625 V -23.375 c 2.515625,0 2.796875,0.25 2.796875,2 z m 0,0"
           id="path2977" />
      </symbol>
      <symbol
         overflow="visible"
         id="glyph0-11-1">
        <path
           style="stroke:none"
           d="m 4.015625,-9.03125 c 0.21875,-5.34375 3.234375,-6.25 4.453125,-6.25 3.6875,0 4.046875,4.84375 4.046875,6.25 z m -0.03125,0.75 h 10 c 0.796875,0 0.890625,0 0.890625,-0.75 0,-3.5625 -1.9375,-7.03125 -6.40625,-7.03125 C 4.296875,-16.0625 1,-12.375 1,-7.890625 c 0,4.8125 3.765625,8.28125 7.890625,8.28125 4.375,0 5.984375,-3.96875 5.984375,-4.65625 0,-0.359375 -0.28125,-0.4375 -0.453125,-0.4375 -0.328125,0 -0.40625,0.21875 -0.46875,0.5 C 12.6875,-0.5 9.46875,-0.5 9.109375,-0.5 7.3125,-0.5 5.875,-1.578125 5.0625,-2.90625 3.984375,-4.625 3.984375,-7 3.984375,-8.28125 Z m 0,0"
           id="path2980" />
      </symbol>
      <symbol
         overflow="visible"
         id="glyph0-12-3">
        <path
           style="stroke:none"
           d="m 13.734375,-14.34375 v 11.625 c 0,1.609375 -0.390625,1.609375 -2.796875,1.609375 V 0 c 1.1875,-0.03125 3.078125,-0.109375 3.984375,-0.109375 0.890625,0 2.65625,0.078125 3.96875,0.109375 v -1.109375 c -2.390625,0 -2.796875,0 -2.796875,-1.609375 v -22.171875 l -1.28125,0.21875 c -0.140625,0 -0.1875,-0.03125 -0.328125,-0.109375 -1.140625,-0.5 -2.609375,-0.5 -3.015625,-0.5 -3.765625,0 -7.671875,2.015625 -7.671875,5.734375 v 4.09375 H 0.96875 v 1.109375 h 2.828125 v 11.625 C 3.796875,-1.109375 3.40625,-1.109375 1,-1.109375 V 0 C 2.1875,-0.03125 4.09375,-0.109375 4.984375,-0.109375 5.875,-0.109375 7.640625,-0.03125 8.96875,0 v -1.109375 c -2.40625,0 -2.796875,0 -2.796875,-1.609375 v -11.625 z m 0,-1.109375 H 6.0625 V -19.5 c 0,-3.34375 2.71875,-4.984375 5.375,-4.984375 0.328125,0 1.296875,0 2.296875,0.3125 -0.328125,0.140625 -0.890625,0.5 -0.890625,1.4375 0,0.640625 0.28125,1.1875 0.890625,1.390625 z m 0,0"
           id="path2983" />
      </symbol>
      <symbol
         overflow="visible"
         id="glyph0-13-9">
        <path
           style="stroke:none"
           d="m 6.34375,-15.84375 -5.015625,0.390625 v 1.109375 c 2.328125,0 2.65625,0.21875 2.65625,1.96875 v 9.65625 c 0,1.609375 -0.40625,1.609375 -2.796875,1.609375 V 0 c 1.140625,-0.03125 3.078125,-0.109375 3.9375,-0.109375 1.265625,0 2.515625,0.078125 3.734375,0.109375 v -1.109375 c -2.375,0 -2.515625,-0.1875 -2.515625,-1.578125 z m 0.140625,-6.25 c 0,-1.140625 -0.890625,-1.890625 -1.890625,-1.890625 -1.109375,0 -1.90625,0.96875 -1.90625,1.890625 0,0.96875 0.796875,1.90625 1.90625,1.90625 1,0 1.890625,-0.75 1.890625,-1.90625 z m 0,0"
           id="path2986" />
      </symbol>
      <symbol
         overflow="visible"
         id="glyph0-14">
        <path
           style="stroke:none"
           d="M 13.625,-1.96875 V 0.390625 L 18.890625,0 v -1.109375 c -2.5,0 -2.796875,-0.25 -2.796875,-2.015625 v -21.765625 l -5.15625,0.40625 V -23.375 c 2.515625,0 2.796875,0.25 2.796875,2 v 7.75 c -1.046875,-1.296875 -2.578125,-2.21875 -4.515625,-2.21875 -4.234375,0 -8,3.515625 -8,8.140625 0,4.546875 3.515625,8.09375 7.609375,8.09375 2.28125,0 3.90625,-1.21875 4.796875,-2.359375 z m 0,-9.609375 v 7.34375 c 0,0.65625 0,0.71875 -0.390625,1.328125 C 12.15625,-1.1875 10.546875,-0.390625 9,-0.390625 c -1.609375,0 -2.90625,-0.9375 -3.765625,-2.296875 -0.9375,-1.46875 -1.03125,-3.515625 -1.03125,-4.984375 0,-1.328125 0.0625,-3.484375 1.109375,-5.09375 0.75,-1.109375 2.109375,-2.296875 4.046875,-2.296875 1.25,0 2.765625,0.546875 3.875,2.15625 0.390625,0.609375 0.390625,0.671875 0.390625,1.328125 z m 0,0"
           id="path2989" />
      </symbol>
      <symbol
         overflow="visible"
         id="glyph0-15">
        <path
           style="stroke:none"
           d="m 22.203125,-12.046875 c 0.640625,-1.796875 1.75,-2.265625 3,-2.296875 v -1.109375 c -0.78125,0.0625 -1.828125,0.109375 -2.609375,0.109375 -1.046875,0 -2.65625,-0.07813 -3.34375,-0.109375 v 1.109375 c 1.296875,0.03125 2.09375,0.6875 2.09375,1.71875 0,0.21875 0,0.296875 -0.1875,0.75 l -3.265625,9.1875 -3.546875,-10 c -0.140625,-0.4375 -0.171875,-0.515625 -0.171875,-0.6875 0,-0.96875 1.390625,-0.96875 2.109375,-0.96875 v -1.109375 c -1.046875,0.03125 -2.875,0.109375 -3.734375,0.109375 -1.078125,0 -2.109375,-0.04687 -3.1875,-0.109375 v 1.109375 c 1.328125,0 1.90625,0.07813 2.265625,0.53125 0.171875,0.21875 0.5625,1.296875 0.8125,1.984375 l -3.078125,8.671875 -3.40625,-9.578125 c -0.1875,-0.421875 -0.1875,-0.5 -0.1875,-0.640625 0,-0.96875 1.40625,-0.96875 2.125,-0.96875 v -1.109375 c -1.078125,0.03125 -3.078125,0.109375 -3.90625,0.109375 -0.140625,0 -2.046875,-0.04687 -3.34375,-0.109375 v 1.109375 c 1.796875,0 2.234375,0.109375 2.65625,1.25 L 7.8125,-0.390625 c 0.1875,0.5 0.296875,0.78125 0.765625,0.78125 0.453125,0 0.53125,-0.21875 0.703125,-0.71875 l 3.625,-10.140625 3.65625,10.1875 c 0.140625,0.390625 0.25,0.671875 0.71875,0.671875 0.46875,0 0.578125,-0.3125 0.71875,-0.671875 z m 0,0"
           id="path2992" />
      </symbol>
      <symbol
         overflow="visible"
         id="glyph0-16">
        <path
           style="stroke:none"
           d="m 7.953125,-6.171875 c -3.109375,0 -3.109375,-3.578125 -3.109375,-4.40625 0,-0.96875 0.03125,-2.109375 0.578125,-3.015625 0.28125,-0.421875 1.109375,-1.4375 2.53125,-1.4375 3.125,0 3.125,3.59375 3.125,4.421875 0,0.96875 -0.03125,2.109375 -0.578125,3 -0.28125,0.4375 -1.109375,1.4375 -2.546875,1.4375 z m -4.15625,1.40625 c 0,-0.140625 0,-0.96875 0.609375,-1.6875 1.40625,1 2.875,1.109375 3.546875,1.109375 3.34375,0 5.8125,-2.46875 5.8125,-5.234375 0,-1.328125 -0.5625,-2.65625 -1.46875,-3.484375 1.296875,-1.21875 2.578125,-1.390625 3.234375,-1.390625 0.0625,0 0.25,0 0.359375,0.03125 -0.40625,0.140625 -0.578125,0.546875 -0.578125,0.96875 0,0.609375 0.46875,1.046875 1.046875,1.046875 0.34375,0 1.03125,-0.25 1.03125,-1.078125 0,-0.609375 -0.421875,-1.765625 -1.828125,-1.765625 -0.71875,0 -2.296875,0.21875 -3.796875,1.6875 C 10.25,-15.75 8.75,-15.84375 7.953125,-15.84375 c -3.328125,0 -5.796875,2.46875 -5.796875,5.234375 0,1.578125 0.78125,2.9375 1.6875,3.6875 -0.46875,0.53125 -1.125,1.71875 -1.125,2.984375 0,1.109375 0.46875,2.46875 1.578125,3.1875 C 2.15625,-0.140625 1,1.40625 1,2.828125 c 0,2.59375 3.546875,4.5625 7.921875,4.5625 4.234375,0 7.96875,-1.828125 7.96875,-4.625 0,-1.265625 -0.5,-3.09375 -2.328125,-4.09375 -1.90625,-1 -3.984375,-1 -6.171875,-1 -0.890625,0 -2.4375,0 -2.6875,-0.03125 -1.15625,-0.15625 -1.90625,-1.265625 -1.90625,-2.40625 z M 8.96875,6.5625 C 5.34375,6.5625 2.875,4.734375 2.875,2.828125 2.875,1.1875 4.234375,-0.140625 5.8125,-0.25 h 2.109375 c 3.09375,0 7.109375,0 7.109375,3.078125 0,1.9375 -2.546875,3.734375 -6.0625,3.734375 z m 0,0"
           id="path2995" />
      </symbol>
      <symbol
         overflow="visible"
         id="glyph0-17">
        <path
           style="stroke:none"
           d="M 7.453125,-6.953125 C 8.25,-6.8125 11.1875,-6.234375 11.1875,-3.65625 c 0,1.828125 -1.25,3.265625 -4.046875,3.265625 -3.015625,0 -4.3125,-2.046875 -4.984375,-5.09375 -0.109375,-0.46875 -0.140625,-0.609375 -0.5,-0.609375 -0.46875,0 -0.46875,0.25 -0.46875,0.890625 v 4.734375 c 0,0.609375 0,0.859375 0.390625,0.859375 0.171875,0 0.21875,-0.03125 0.890625,-0.71875 0.078125,-0.0625 0.078125,-0.140625 0.71875,-0.8125 1.578125,1.5 3.203125,1.53125 3.953125,1.53125 4.125,0 5.765625,-2.40625 5.765625,-4.984375 0,-1.890625 -1.078125,-2.96875 -1.5,-3.40625 -1.1875,-1.140625 -2.578125,-1.4375 -4.09375,-1.71875 -2,-0.390625 -4.40625,-0.859375 -4.40625,-2.9375 0,-1.25 0.9375,-2.734375 4.015625,-2.734375 3.9375,0 4.125,3.234375 4.1875,4.34375 0.04687,0.328125 0.359375,0.328125 0.4375,0.328125 0.46875,0 0.46875,-0.1875 0.46875,-0.859375 v -3.625 c 0,-0.609375 0,-0.859375 -0.390625,-0.859375 -0.1875,0 -0.25,0 -0.71875,0.421875 -0.109375,0.15625 -0.46875,0.46875 -0.609375,0.578125 -1.375,-1 -2.84375,-1 -3.375,-1 -4.375,0 -5.734375,2.40625 -5.734375,4.40625 0,1.25 0.5625,2.265625 1.53125,3.046875 1.15625,0.9375 2.15625,1.15625 4.734375,1.65625 z m 0,0"
           id="path2998" />
      </symbol>
      <symbol
         overflow="visible"
         id="glyph0-18">
        <path
           style="stroke:none"
           d="M 6.171875,-13.484375 V -15.84375 L 1,-15.453125 v 1.109375 c 2.546875,0 2.796875,0.21875 2.796875,1.796875 V 4.234375 C 3.796875,5.84375 3.40625,5.84375 1,5.84375 V 6.953125 C 2.21875,6.921875 4.09375,6.84375 5.015625,6.84375 c 0.96875,0 2.796875,0.078125 4.0625,0.109375 V 5.84375 c -2.40625,0 -2.796875,0 -2.796875,-1.609375 v -6.34375 c 0.171875,0.5625 1.671875,2.5 4.40625,2.5 4.265625,0 8,-3.515625 8,-8.140625 0,-4.546875 -3.484375,-8.09375 -7.5,-8.09375 -2.796875,0 -4.296875,1.578125 -5.015625,2.359375 z M 6.28125,-4.09375 v -7.984375 c 1.03125,-1.828125 2.796875,-2.875 4.625,-2.875 2.609375,0 4.796875,3.15625 4.796875,7.203125 0,4.34375 -2.5,7.359375 -5.15625,7.359375 -1.4375,0 -2.796875,-0.71875 -3.765625,-2.1875 -0.5,-0.75 -0.5,-0.796875 -0.5,-1.515625 z m 0,0"
           id="path3001" />
      </symbol>
      <symbol
         overflow="visible"
         id="glyph0-19">
        <path
           style="stroke:none"
           d="m 5.984375,-11.90625 v -3.9375 L 1,-15.453125 v 1.109375 c 2.515625,0 2.796875,0.25 2.796875,2.015625 V -2.71875 C 3.796875,-1.109375 3.40625,-1.109375 1,-1.109375 V 0 c 1.40625,-0.03125 3.09375,-0.109375 4.09375,-0.109375 1.4375,0 3.125,0 4.546875,0.109375 v -1.109375 h -0.75 c -2.65625,0 -2.71875,-0.390625 -2.71875,-1.6875 V -8.3125 c 0,-3.5625 1.5,-6.75 4.234375,-6.75 0.25,0 0.3125,0 0.390625,0.03125 -0.109375,0.04687 -0.828125,0.46875 -0.828125,1.40625 0,1 0.75,1.546875 1.546875,1.546875 0.640625,0 1.53125,-0.4375 1.53125,-1.578125 0,-1.15625 -1.109375,-2.1875 -2.640625,-2.1875 -2.625,0 -3.921875,2.390625 -4.421875,3.9375 z m 0,0"
           id="path3004" />
      </symbol>
    </g>
  </defs>
  <sodipodi:namedview
     inkscape:window-maximized="1"
     inkscape:window-y="27"
     inkscape:window-x="0"
     inkscape:window-height="1016"
     inkscape:window-width="1920"
     showgrid="false"
     inkscape:document-rotation="0"
     inkscape:current-layer="layer1"
     inkscape:document-units="mm"
     inkscape:cy="242.31337"
     inkscape:cx="319.75978"
     inkscape:zoom="0.85220225"
     inkscape:pageshadow="2"
     inkscape:pageopacity="0.0"
     borderopacity="1.0"
     bordercolor="#666666"
     pagecolor="#ffffff"
     id="base"
     inkscape:pagecheckerboard="0"
     inkscape:lockguides="true" />
  <metadata
     id="metadata5">
    <rdf:RDF>
      <cc:Work
         rdf:about="">
        <dc:format>image/svg+xml</dc:format>
        <dc:type
           rdf:resource="http://purl.org/dc/dcmitype/StillImage" />
      </cc:Work>
    </rdf:RDF>
  </metadata>
  <g
     id="layer1"
     inkscape:groupmode="layer"
     inkscape:label="Layer 1">
    <g
       id="g326"
       transform="translate(-72.483575,-60.520545)">
      <text
         y="63.284725"
         x="89.260651"
         id="text943"
         style="font-variant:normal;font-weight:normal;font-size:3.84849px;font-family:CMSY10;-inkscape-font-specification:CMSY10;writing-mode:lr-tb;fill:#000000;fill-opacity:1;fill-rule:nonzero;stroke:none;stroke-width:0.352778"><tspan
           style="stroke-width:0.352778"
           id="tspan941"
           y="63.284725"
           x="89.260651" /></text>
      <path
         style="fill:none;stroke:#000000;stroke-width:0.264583px;stroke-linecap:butt;stroke-linejoin:miter;stroke-opacity:1;marker-end:url(#Arrow1Lend)"
         d="m 95.35917,109.26661 v 16.39354"
         id="path1532" />
      <text
         xml:space="preserve"
         transform="scale(0.26458333)"
         id="text4181"
         style="font-size:14.6667px;line-height:1.25;font-family:sans-serif;word-spacing:0px;white-space:pre;shape-inside:url(#rect4183)" />
      <ellipse
         style="opacity:0.95;fill:#ffffff;fill-opacity:0;stroke:#000000;stroke-width:0.265;stroke-miterlimit:4;stroke-dasharray:none"
         id="path88"
         cx="95.435844"
         cy="97.593887"
         rx="11.922029"
         ry="11.922269" />
      <path
         style="fill:none;stroke:#000000;stroke-width:0.264583px;stroke-linecap:butt;stroke-linejoin:miter;stroke-opacity:1;marker-end:url(#Arrow1Lend)"
         d="M 95.35917,85.427794 V 69.034347"
         id="path2929" />
      <g
         style="fill:#000000;fill-opacity:1"
         id="g3013"
         transform="matrix(0.12065777,0,0,0.12065777,75.44861,63.916984)">
        <use
           xlink:href="#glyph0-1-4"
           x="-0.72839999"
           y="25.651199"
           id="use3011"
           width="100%"
           height="100%" />
      </g>
      <g
         style="fill:#000000;fill-opacity:1"
         id="g3017"
         transform="matrix(0.12065777,0,0,0.12065777,75.44861,63.916984)">
        <use
           xlink:href="#glyph0-2-21"
           x="19.198395"
           y="25.651199"
           id="use3015"
           width="100%"
           height="100%" />
      </g>
      <g
         style="fill:#000000;fill-opacity:1"
         id="g3021"
         transform="matrix(0.12065777,0,0,0.12065777,75.44861,63.916984)">
        <use
           xlink:href="#glyph0-3-9"
           x="39.125187"
           y="25.651199"
           id="use3019"
           width="100%"
           height="100%" />
      </g>
      <g
         style="fill:#000000;fill-opacity:1"
         id="g3025"
         transform="matrix(0.12065777,0,0,0.12065777,75.44861,63.916984)">
        <use
           xlink:href="#glyph0-4-2"
           x="56.053638"
           y="25.651199"
           id="use3023"
           width="100%"
           height="100%" />
      </g>
      <g
         style="fill:#000000;fill-opacity:1"
         id="g3031"
         transform="matrix(0.12065777,0,0,0.12065777,75.44861,63.916984)">
        <use
           xlink:href="#glyph0-5-4"
           x="73.979141"
           y="25.651199"
           id="use3027"
           width="100%"
           height="100%" />
        <use
           xlink:href="#glyph0-6-5"
           x="91.911827"
           y="25.651199"
           id="use3029"
           width="100%"
           height="100%" />
      </g>
      <g
         style="fill:#000000;fill-opacity:1"
         id="g3035"
         transform="matrix(0.12065777,0,0,0.12065777,75.44861,63.916984)">
        <use
           xlink:href="#glyph0-7-8"
           x="111.83862"
           y="25.651199"
           id="use3033"
           width="100%"
           height="100%" />
      </g>
      <g
         style="fill:#000000;fill-opacity:1"
         id="g3039"
         transform="matrix(0.12065777,0,0,0.12065777,75.44861,63.916984)">
        <use
           xlink:href="#glyph0-4-2"
           x="127.77718"
           y="25.651199"
           id="use3037"
           width="100%"
           height="100%" />
      </g>
      <g
         style="fill:#000000;fill-opacity:1"
         id="g3045"
         transform="matrix(0.12065777,0,0,0.12065777,75.44861,63.916984)">
        <use
           xlink:href="#glyph0-3-9"
           x="159.18806"
           y="25.651199"
           id="use3041"
           width="100%"
           height="100%" />
        <use
           xlink:href="#glyph0-8-6"
           x="177.12074"
           y="25.651199"
           id="use3043"
           width="100%"
           height="100%" />
      </g>
      <g
         style="fill:#000000;fill-opacity:1"
         id="g3049"
         transform="matrix(0.12065777,0,0,0.12065777,75.44861,63.916984)">
        <use
           xlink:href="#glyph0-9-2"
           x="202.82187"
           y="25.651199"
           id="use3047"
           width="100%"
           height="100%" />
      </g>
      <g
         style="fill:#000000;fill-opacity:1"
         id="g3053"
         transform="matrix(0.12065777,0,0,0.12065777,75.44861,63.916984)">
        <use
           xlink:href="#glyph0-10-5"
           x="216.7699"
           y="25.651199"
           id="use3051"
           width="100%"
           height="100%" />
      </g>
      <g
         style="fill:#000000;fill-opacity:1"
         id="g3057"
         transform="matrix(0.12065777,0,0,0.12065777,75.44861,63.916984)">
        <use
           xlink:href="#glyph0-11-1"
           x="236.6967"
           y="25.651199"
           id="use3055"
           width="100%"
           height="100%" />
      </g>
      <g
         style="fill:#000000;fill-opacity:1"
         id="g3061"
         transform="matrix(0.12065777,0,0,0.12065777,75.44861,63.916984)">
        <use
           xlink:href="#glyph0-12-3"
           x="264.57843"
           y="25.651199"
           id="use3059"
           width="100%"
           height="100%" />
      </g>
      <g
         style="fill:#000000;fill-opacity:1"
         id="g3065"
         transform="matrix(0.12065777,0,0,0.12065777,75.44861,63.916984)">
        <use
           xlink:href="#glyph0-2-21"
           x="284.50522"
           y="25.651199"
           id="use3063"
           width="100%"
           height="100%" />
      </g>
      <g
         style="fill:#000000;fill-opacity:1"
         id="g3069"
         transform="matrix(0.12065777,0,0,0.12065777,75.44861,63.916984)">
        <use
           xlink:href="#glyph0-13-9"
           x="304.43201"
           y="25.651199"
           id="use3067"
           width="100%"
           height="100%" />
      </g>
      <g
         style="fill:#000000;fill-opacity:1"
         id="g3073"
         transform="matrix(0.12065777,0,0,0.12065777,75.44861,63.916984)">
        <use
           xlink:href="#glyph0-14"
           x="314.39542"
           y="25.651199"
           id="use3071"
           width="100%"
           height="100%" />
      </g>
      <g
         style="fill:#000000;fill-opacity:1"
         id="g3077"
         transform="matrix(0.12065777,0,0,0.12065777,74.059376,121.60152)">
        <use
           xlink:href="#glyph0-15"
           x="15.4104"
           y="79.4496"
           id="use3075"
           width="100%"
           height="100%" />
      </g>
      <g
         style="fill:#000000;fill-opacity:1"
         id="g3081"
         transform="matrix(0.12065777,0,0,0.12065777,74.059376,121.60152)">
        <use
           xlink:href="#glyph0-11-1"
           x="40.308132"
           y="79.4496"
           id="use3079"
           width="100%"
           height="100%" />
      </g>
      <g
         style="fill:#000000;fill-opacity:1"
         id="g3085"
         transform="matrix(0.12065777,0,0,0.12065777,74.059376,121.60152)">
        <use
           xlink:href="#glyph0-13-9"
           x="56.2467"
           y="79.4496"
           id="use3083"
           width="100%"
           height="100%" />
      </g>
      <g
         style="fill:#000000;fill-opacity:1"
         id="g3091"
         transform="matrix(0.12065777,0,0,0.12065777,74.059376,121.60152)">
        <use
           xlink:href="#glyph0-16"
           x="66.210098"
           y="79.4496"
           id="use3087"
           width="100%"
           height="100%" />
        <use
           xlink:href="#glyph0-10-5"
           x="84.142776"
           y="79.4496"
           id="use3089"
           width="100%"
           height="100%" />
      </g>
      <g
         style="fill:#000000;fill-opacity:1"
         id="g3095"
         transform="matrix(0.12065777,0,0,0.12065777,74.059376,121.60152)">
        <use
           xlink:href="#glyph0-9-2"
           x="103.06534"
           y="79.4496"
           id="use3093"
           width="100%"
           height="100%" />
      </g>
      <g
         style="fill:#000000;fill-opacity:1"
         id="g3101"
         transform="matrix(0.12065777,0,0,0.12065777,74.059376,121.60152)">
        <use
           xlink:href="#glyph0-3-9"
           x="128.99242"
           y="79.4496"
           id="use3097"
           width="100%"
           height="100%" />
        <use
           xlink:href="#glyph0-8-6"
           x="146.92509"
           y="79.4496"
           id="use3099"
           width="100%"
           height="100%" />
      </g>
      <g
         style="fill:#000000;fill-opacity:1"
         id="g3105"
         transform="matrix(0.12065777,0,0,0.12065777,74.059376,121.60152)">
        <use
           xlink:href="#glyph0-9-2"
           x="172.62621"
           y="79.4496"
           id="use3103"
           width="100%"
           height="100%" />
      </g>
      <g
         style="fill:#000000;fill-opacity:1"
         id="g3109"
         transform="matrix(0.12065777,0,0,0.12065777,74.059376,121.60152)">
        <use
           xlink:href="#glyph0-10-5"
           x="186.57425"
           y="79.4496"
           id="use3107"
           width="100%"
           height="100%" />
      </g>
      <g
         style="fill:#000000;fill-opacity:1"
         id="g3113"
         transform="matrix(0.12065777,0,0,0.12065777,74.059376,121.60152)">
        <use
           xlink:href="#glyph0-11-1"
           x="206.50104"
           y="79.4496"
           id="use3111"
           width="100%"
           height="100%" />
      </g>
      <g
         style="fill:#000000;fill-opacity:1"
         id="g3117"
         transform="matrix(0.12065777,0,0,0.12065777,74.059376,121.60152)">
        <use
           xlink:href="#glyph0-17"
           x="234.38277"
           y="79.4496"
           id="use3115"
           width="100%"
           height="100%" />
      </g>
      <g
         style="fill:#000000;fill-opacity:1"
         id="g3121"
         transform="matrix(0.12065777,0,0,0.12065777,74.059376,121.60152)">
        <use
           xlink:href="#glyph0-18"
           x="248.52806"
           y="79.4496"
           id="use3119"
           width="100%"
           height="100%" />
      </g>
      <g
         style="fill:#000000;fill-opacity:1"
         id="g3125"
         transform="matrix(0.12065777,0,0,0.12065777,74.059376,121.60152)">
        <use
           xlink:href="#glyph0-10-5"
           x="268.45486"
           y="79.4496"
           id="use3123"
           width="100%"
           height="100%" />
      </g>
      <g
         style="fill:#000000;fill-opacity:1"
         id="g3129"
         transform="matrix(0.12065777,0,0,0.12065777,74.059376,121.60152)">
        <use
           xlink:href="#glyph0-11-1"
           x="288.38165"
           y="79.4496"
           id="use3127"
           width="100%"
           height="100%" />
      </g>
      <g
         style="fill:#000000;fill-opacity:1"
         id="g3133"
         transform="matrix(0.12065777,0,0,0.12065777,74.059376,121.60152)">
        <use
           xlink:href="#glyph0-19"
           x="304.32022"
           y="79.4496"
           id="use3131"
           width="100%"
           height="100%" />
      </g>
      <g
         style="fill:#000000;fill-opacity:1"
         id="g3137"
         transform="matrix(0.12065777,0,0,0.12065777,74.059376,121.60152)">
        <use
           xlink:href="#glyph0-11-1"
           x="318.36868"
           y="79.4496"
           id="use3135"
           width="100%"
           height="100%" />
      </g>
      <g
         style="fill:#000000;fill-opacity:1"
         id="g3141"
         transform="matrix(0.12065777,0,0,0.12065777,94.277021,84.635977)">
        <use
           xlink:href="#glyph0-14"
           x="177.2052"
           y="133.248"
           id="use3139"
           width="100%"
           height="100%" />
      </g>
      <g
         style="fill:#000000;fill-opacity:1"
         id="g3145"
         transform="matrix(0.12065777,0,0,0.12065777,94.277021,84.635977)">
        <use
           xlink:href="#glyph0-19"
           x="197.13199"
           y="133.248"
           id="use3143"
           width="100%"
           height="100%" />
      </g>
      <g
         style="fill:#000000;fill-opacity:1"
         id="g3151"
         transform="matrix(0.12065777,0,0,0.12065777,94.277021,84.635977)">
        <use
           xlink:href="#glyph0-5-4"
           x="211.18045"
           y="133.248"
           id="use3147"
           width="100%"
           height="100%" />
        <use
           xlink:href="#glyph0-16"
           x="229.11313"
           y="133.248"
           id="use3149"
           width="100%"
           height="100%" />
      </g>
      <g
         style="fill:#000000;fill-opacity:1"
         id="g3155"
         transform="matrix(0.12065777,0,0,0.12065777,94.277021,84.635977)">
        <use
           xlink:href="#glyph0-8-6"
           x="259.49109"
           y="133.248"
           id="use3153"
           width="100%"
           height="100%" />
      </g>
      <g
         style="fill:#000000;fill-opacity:1"
         id="g3161"
         transform="matrix(0.12065777,0,0,0.12065777,94.277021,84.635977)">
        <use
           xlink:href="#glyph0-3-9"
           x="270.45154"
           y="133.248"
           id="use3157"
           width="100%"
           height="100%" />
        <use
           xlink:href="#glyph0-19"
           x="288.38422"
           y="133.248"
           id="use3159"
           width="100%"
           height="100%" />
      </g>
      <g
         style="fill:#000000;fill-opacity:1"
         id="g3165"
         transform="matrix(0.12065777,0,0,0.12065777,94.277021,84.635977)">
        <use
           xlink:href="#glyph0-7-8"
           x="302.43268"
           y="133.248"
           id="use3163"
           width="100%"
           height="100%" />
      </g>
      <g
         style="fill:#000000;fill-opacity:1"
         id="g3169"
         transform="matrix(0.12065777,0,0,0.12065777,94.277021,84.635977)">
        <use
           xlink:href="#glyph0-11-1"
           x="318.37125"
           y="133.248"
           id="use3167"
           width="100%"
           height="100%" />
      </g>
      <path
         style="fill:none;stroke:#000000;stroke-width:0.265;stroke-linecap:butt;stroke-linejoin:miter;stroke-miterlimit:4;stroke-dasharray:none;stroke-opacity:1;marker-end:url(#Arrow1Lend)"
         d="M 124.46349,95.481967 V 79.08852"
         id="path3378" />
    </g>
  </g>
</svg>
