<?xml version="1.0" encoding="UTF-8" standalone="no"?>
<!-- Created with Inkscape (http://www.inkscape.org/) -->

<svg
   viewBox="0 0 126.66134 253.32269"
   width="85mm"
   height="55mm"
   id="svg2"
   version="1.1"
   inkscape:version="1.1 (1:1.1+202106031931+af4d65493e)"
   sodipodi:docname="WavesMechanism.svg"
   xmlns:inkscape="http://www.inkscape.org/namespaces/inkscape"
   xmlns:sodipodi="http://sodipodi.sourceforge.net/DTD/sodipodi-0.dtd"
   xmlns:xlink="http://www.w3.org/1999/xlink"
   xmlns="http://www.w3.org/2000/svg"
   xmlns:svg="http://www.w3.org/2000/svg"
   xmlns:rdf="http://www.w3.org/1999/02/22-rdf-syntax-ns#"
   xmlns:cc="http://creativecommons.org/ns#"
   xmlns:dc="http://purl.org/dc/elements/1.1/"
   xmlns:ns0="http://www.iki.fi/pav/software/textext/">
  <sodipodi:namedview
     id="base"
     pagecolor="#ffffff"
     bordercolor="#666666"
     borderopacity="1.0"
     inkscape:pageopacity="0.0"
     inkscape:pageshadow="2"
     inkscape:zoom="4"
     inkscape:cx="149.125"
     inkscape:cy="123.875"
     inkscape:document-units="mm"
     inkscape:current-layer="layer1"
     showgrid="true"
     units="mm"
     inkscape:window-width="1920"
     inkscape:window-height="1016"
     inkscape:window-x="0"
     inkscape:window-y="27"
     inkscape:window-maximized="1"
     inkscape:pagecheckerboard="0">
    <inkscape:grid
       spacingy="4.6058673"
       spacingx="1.4901333"
       units="mm"
       snapvisiblegridlinesonly="true"
       enabled="true"
       visible="true"
       empspacing="5"
       id="grid2985"
       type="xygrid"
       originx="0"
       originy="0" />
  </sodipodi:namedview>
  <defs
     id="defs4">
    <pattern
       inkscape:collect="always"
       xlink:href="#Wavy"
       id="pattern18695"
       patternTransform="translate(8.1031592e-7,-161.20538)" />
    <pattern
       inkscape:collect="always"
       patternUnits="userSpaceOnUse"
       width="30.066020"
       height="5.1805778"
       id="Wavy"
       inkscape:stockid="Wavy">
      <path
         style="fill:black;stroke:none;"
         d="M 7.597,0.061 C 5.079,-0.187 2.656,0.302 -0.01,1.788 L -0.01,3.061 C 2.773,1.431 5.173,1.052 7.472,1.280 C 9.770,1.508 11.969,2.361 14.253,3.218 C 18.820,4.931 23.804,6.676 30.066,3.061 L 30.062,1.788 C 23.622,5.497 19.246,3.770 14.691,2.061 C 12.413,1.207 10.115,0.311 7.597,0.061 z "
         id="path18190" />
    </pattern>
    <inkscape:path-effect
       effect="bspline"
       id="path-effect16458"
       is_visible="true"
       lpeversion="1"
       weight="33.333333"
       steps="2"
       helper_size="0"
       apply_no_weight="true"
       apply_with_weight="true"
       only_selected="false" />
    <inkscape:path-effect
       effect="bspline"
       id="path-effect11876"
       is_visible="true"
       lpeversion="1"
       weight="33.333333"
       steps="2"
       helper_size="0"
       apply_no_weight="true"
       apply_with_weight="true"
       only_selected="false" />
    <inkscape:path-effect
       effect="bspline"
       id="path-effect10956"
       is_visible="true"
       lpeversion="1"
       weight="33.333333"
       steps="2"
       helper_size="0"
       apply_no_weight="true"
       apply_with_weight="true"
       only_selected="false" />
    <linearGradient
       inkscape:collect="always"
       id="linearGradient10533">
      <stop
         style="stop-color:#131313;stop-opacity:0.52567939"
         offset="0"
         id="stop10529" />
      <stop
         style="stop-color:#131313;stop-opacity:0"
         offset="1"
         id="stop10531" />
    </linearGradient>
    <inkscape:path-effect
       effect="bspline"
       id="path-effect10474"
       is_visible="true"
       lpeversion="1"
       weight="33.333333"
       steps="2"
       helper_size="0"
       apply_no_weight="true"
       apply_with_weight="true"
       only_selected="false" />
    <inkscape:path-effect
       effect="bspline"
       id="path-effect10055"
       is_visible="true"
       lpeversion="1"
       weight="33.333333"
       steps="2"
       helper_size="0"
       apply_no_weight="true"
       apply_with_weight="true"
       only_selected="false" />
    <inkscape:path-effect
       effect="bspline"
       id="path-effect1949"
       is_visible="true"
       lpeversion="1"
       weight="33.333333"
       steps="2"
       helper_size="0"
       apply_no_weight="true"
       apply_with_weight="true"
       only_selected="false" />
    <marker
       style="overflow:visible"
       id="Arrow1Mstart"
       refX="0.0"
       refY="0.0"
       orient="auto"
       inkscape:stockid="Arrow1Mstart"
       inkscape:isstock="true">
      <path
         transform="scale(0.4) translate(10,0)"
         style="fill-rule:evenodd;fill:context-stroke;stroke:context-stroke;stroke-width:1.0pt"
         d="M 0.0,0.0 L 5.0,-5.0 L -12.5,0.0 L 5.0,5.0 L 0.0,0.0 z "
         id="path1539" />
    </marker>
    <marker
       style="overflow:visible;"
       id="Arrow1Mend"
       refX="0.0"
       refY="0.0"
       orient="auto"
       inkscape:stockid="Arrow1Mend"
       inkscape:isstock="true">
      <path
         transform="scale(0.4) rotate(180) translate(10,0)"
         style="fill-rule:evenodd;fill:context-stroke;stroke:context-stroke;stroke-width:1.0pt;"
         d="M 0.0,0.0 L 5.0,-5.0 L -12.5,0.0 L 5.0,5.0 L 0.0,0.0 z "
         id="path1542" />
    </marker>
    <inkscape:path-effect
       effect="bspline"
       id="path-effect1531"
       is_visible="true"
       lpeversion="1"
       weight="33.333333"
       steps="2"
       helper_size="0"
       apply_no_weight="true"
       apply_with_weight="true"
       only_selected="false" />
    <inkscape:path-effect
       effect="bspline"
       id="path-effect1170"
       is_visible="true"
       lpeversion="1"
       weight="33.333333"
       steps="2"
       helper_size="0"
       apply_no_weight="true"
       apply_with_weight="true"
       only_selected="false" />
    <inkscape:path-effect
       effect="bspline"
       id="path-effect1034"
       is_visible="true"
       lpeversion="1"
       weight="33.333333"
       steps="2"
       helper_size="0"
       apply_no_weight="true"
       apply_with_weight="true"
       only_selected="false" />
    <inkscape:path-effect
       effect="bspline"
       id="path-effect865"
       is_visible="true"
       lpeversion="1"
       weight="33.333333"
       steps="2"
       helper_size="0"
       apply_no_weight="true"
       apply_with_weight="true"
       only_selected="false" />
    <marker
       style="overflow:visible"
       id="Arrow1Mstart-3"
       refX="0"
       refY="0"
       orient="auto"
       inkscape:stockid="Arrow1Mstart"
       inkscape:isstock="true">
      <path
         transform="matrix(0.4,0,0,0.4,4,0)"
         style="fill:context-stroke;fill-rule:evenodd;stroke:context-stroke;stroke-width:1pt"
         d="M 0,0 5,-5 -12.5,0 5,5 Z"
         id="path1539-6" />
    </marker>
    <marker
       style="overflow:visible"
       id="Arrow1Mend-7"
       refX="0"
       refY="0"
       orient="auto"
       inkscape:stockid="Arrow1Mend"
       inkscape:isstock="true">
      <path
         transform="matrix(-0.4,0,0,-0.4,-4,0)"
         style="fill:context-stroke;fill-rule:evenodd;stroke:context-stroke;stroke-width:1pt"
         d="M 0,0 5,-5 -12.5,0 5,5 Z"
         id="path1542-5" />
    </marker>
    <g
       id="id-81b31cee-da8d-4c0c-b1fb-3076cd96d209-2"
       style="stroke:#000000;stroke-width:0;stroke-opacity:1">
      <symbol
         overflow="visible"
         id="id-50559bfd-56a9-43df-a187-c7732d8e4995-9"
         style="stroke:#000000;stroke-width:0;stroke-opacity:1">
        <path
           style="stroke:#000000;stroke-width:0;stroke-opacity:1"
           d=""
           id="id-9df9f654-9535-4731-979d-648c6c56c014-1" />
      </symbol>
      <symbol
         overflow="visible"
         id="id-0bf0610e-b65b-44f8-80f4-f24587c5c6f7-2"
         style="stroke:#000000;stroke-width:0;stroke-opacity:1">
        <path
           style="stroke:#000000;stroke-width:0;stroke-opacity:1"
           d="m 3.5625,-2.90625 c 0.40625,1.046875 0.890625,2.5625 1.046875,2.796875 0.15625,0.21875 0.25,0.21875 0.53125,0.21875 h 0.21875 c 0.09375,-0.015625 0.109375,-0.0625 0.109375,-0.09375 0,-0.03125 -0.03125,-0.0625 -0.0625,-0.09375 C 5.3125,-0.1875 5.25,-0.34375 5.1875,-0.53125 L 3.15625,-6.203125 c -0.21875,-0.578125 -0.75,-0.71875 -1.21875,-0.71875 -0.046875,0 -0.1875,0 -0.1875,0.109375 0,0.078125 0.078125,0.109375 0.09375,0.109375 C 2.171875,-6.65625 2.25,-6.59375 2.5,-5.90625 l 0.953125,2.703125 -2.75,2.734375 c -0.109375,0.125 -0.171875,0.171875 -0.171875,0.3125 0,0.171875 0.140625,0.28125 0.296875,0.28125 0.15625,0 0.25,-0.109375 0.328125,-0.203125 z m 0,0"
           id="id-3f791fc3-36f3-4133-b905-5d862c5a290b-7" />
      </symbol>
    </g>
    <linearGradient
       inkscape:collect="always"
       xlink:href="#linearGradient10533"
       id="linearGradient10535"
       x1="70.239456"
       y1="962.70831"
       x2="70.239456"
       y2="875.19684"
       gradientUnits="userSpaceOnUse"
       gradientTransform="translate(1.24189e-5,36.846911)" />
    <linearGradient
       inkscape:collect="always"
       xlink:href="#linearGradient10533"
       id="linearGradient11082"
       x1="74.845322"
       y1="1022.5846"
       x2="74.845322"
       y2="1119.3079"
       gradientUnits="userSpaceOnUse"
       gradientTransform="translate(1.2094501e-6,-23.029377)" />
  </defs>
  <metadata
     id="metadata7">
    <rdf:RDF>
      <cc:Work
         rdf:about="">
        <dc:format>image/svg+xml</dc:format>
        <dc:type
           rdf:resource="http://purl.org/dc/dcmitype/StillImage" />
      </cc:Work>
    </rdf:RDF>
  </metadata>
  <g
     transform="translate(0,-875.19684)"
     id="layer1"
     inkscape:groupmode="layer"
     inkscape:label="Layer 1">
    <path
       style="fill:none;fill-rule:evenodd;stroke:#9c9c9c;stroke-width:1.21864px;stroke-linecap:butt;stroke-linejoin:miter;stroke-opacity:1"
       d="m -132.4187,990.34352 c 130.5007972,0 261.00037,0 391.49871,0"
       id="path863"
       inkscape:path-effect="#path-effect865"
       inkscape:original-d="m -132.4187,990.34352 c 130.5007972,0.001 261.00037,0.001 391.49871,0"
       sodipodi:nodetypes="cc" />
    <path
       id="path10053-6"
       style="fill:url(#linearGradient10535);fill-opacity:1;fill-rule:evenodd;stroke:none;stroke-width:1.21864px;stroke-linecap:butt;stroke-linejoin:miter;stroke-opacity:1"
       inkscape:path-effect="#path-effect10474"
       inkscape:original-d="m 189.992,990.34352 c 7.67766,-3.06936 15.35412,-6.13994 23.02934,-9.21173 15.35442,-3.06942 30.707,-6.13994 46.05867,-9.21174 M 189.992,990.34352 c -7.67522,4.60708 -15.35152,9.21286 -23.02933,13.81758 -15.35167,3.0717 -30.70425,6.1422 -46.05867,9.2117 -15.35168,-3.0694 -30.704257,-6.1399 -46.058665,-9.2117 -15.351678,-9.21049 -30.704257,-18.42204 -46.058677,-27.63518 -15.351666,-3.06936 -30.704258,-6.13988 -46.05867,-9.21173 -15.351672,3.07179 -30.704254,6.14231 -46.058673,9.21173 -7.67523,4.60709 -15.35167,9.21295 -23.02933,13.8176 -15.351985,4.60718 -46.058675,13.81758 -46.058675,13.81758 V 889.01441 h 391.49871 c 0,0 0.001,55.27165 -10e-6,82.90564"
       d="m 189.992,990.34352 c 7.67707,-3.07083 15.35353,-6.14141 26.86851,-9.21198 11.51497,-3.07058 26.86755,-6.1411 42.2195,-9.21149 M 189.992,990.34352 c -7.67608,4.60564 -15.35238,9.21142 -26.86682,13.04968 -11.51444,3.8383 -26.86702,6.9088 -42.21985,6.909 -15.35283,3e-4 -30.705408,-3.0702 -46.058429,-9.2111 -15.35302,-6.14086 -30.705604,-15.35241 -46.058663,-21.49394 -15.353059,-6.14153 -30.7056517,-9.21205 -46.058927,-9.21232 -15.353275,-2.6e-4 -30.705858,3.07025 -42.220973,6.90849 -11.515114,3.83825 -19.191552,8.44411 -30.706164,13.05001 -11.514614,4.6059 -26.867974,9.2119 -42.220864,13.81776 0,0 0,-115.14669 0,-115.14669 0,0 391.49871,0 391.49871,0 0,27.63521 -10e-6,55.27165 -10e-6,82.90564"
       sodipodi:nodetypes="ccccccccccccccc" />
    <g
       transform="translate(46.987613,1024.765)"
       ns0:version="1.3.0"
       ns0:texconverter="pdflatex"
       ns0:pdfconverter="inkscape"
       ns0:text="$\\lambda$"
       ns0:preamble="/home/shreyas/Teaching/Courses/2020/MA3D1/preamble.tex"
       ns0:scale="0.75"
       ns0:alignment="middle center"
       ns0:inkscapeversion="0.48.4"
       ns0:jacobian_sqrt="1.0"
       style="stroke:#000000;stroke-width:0;stroke-opacity:1"
       id="content">
      <defs
         id="id-2f8c1699-3d8d-47c9-bd99-7bd90b77e727"
         style="stroke:#000000;stroke-width:0;stroke-opacity:1">
        <g
           id="id-81b31cee-da8d-4c0c-b1fb-3076cd96d209"
           style="stroke:#000000;stroke-width:0;stroke-opacity:1">
          <symbol
             overflow="visible"
             id="id-50559bfd-56a9-43df-a187-c7732d8e4995"
             style="stroke:#000000;stroke-width:0;stroke-opacity:1">
            <path
               style="stroke:#000000;stroke-width:0;stroke-opacity:1"
               d=""
               id="id-9df9f654-9535-4731-979d-648c6c56c014" />
          </symbol>
          <symbol
             overflow="visible"
             id="id-0bf0610e-b65b-44f8-80f4-f24587c5c6f7"
             style="stroke:#000000;stroke-width:0;stroke-opacity:1">
            <path
               style="stroke:#000000;stroke-width:0;stroke-opacity:1"
               d="m 3.5625,-2.90625 c 0.40625,1.046875 0.890625,2.5625 1.046875,2.796875 0.15625,0.21875 0.25,0.21875 0.53125,0.21875 h 0.21875 c 0.09375,-0.015625 0.109375,-0.0625 0.109375,-0.09375 0,-0.03125 -0.03125,-0.0625 -0.0625,-0.09375 C 5.3125,-0.1875 5.25,-0.34375 5.1875,-0.53125 L 3.15625,-6.203125 c -0.21875,-0.578125 -0.75,-0.71875 -1.21875,-0.71875 -0.046875,0 -0.1875,0 -0.1875,0.109375 0,0.078125 0.078125,0.109375 0.09375,0.109375 C 2.171875,-6.65625 2.25,-6.59375 2.5,-5.90625 l 0.953125,2.703125 -2.75,2.734375 c -0.109375,0.125 -0.171875,0.171875 -0.171875,0.3125 0,0.171875 0.140625,0.28125 0.296875,0.28125 0.15625,0 0.25,-0.109375 0.328125,-0.203125 z m 0,0"
               id="id-3f791fc3-36f3-4133-b905-5d862c5a290b" />
          </symbol>
        </g>
      </defs>
      <g
         id="id-07de4536-3431-4a62-bdf1-b33f5599968e"
         transform="translate(-149.243,-127.843)"
         style="stroke:#000000;stroke-width:0;stroke-opacity:1">
        <g
           style="fill:#000000;fill-opacity:1;stroke:#000000;stroke-width:0;stroke-opacity:1"
           id="id-030568ad-5937-4519-81f8-b6b5407d5ca5">
          <g
             transform="translate(148.712,134.765)"
             style="stroke:#000000;stroke-width:0;stroke-opacity:1"
             id="g1459">
            <path
               style="stroke:#000000;stroke-width:0;stroke-opacity:1"
               d="m 3.5625,-2.90625 c 0.40625,1.046875 0.890625,2.5625 1.046875,2.796875 0.15625,0.21875 0.25,0.21875 0.53125,0.21875 h 0.21875 c 0.09375,-0.015625 0.109375,-0.0625 0.109375,-0.09375 0,-0.03125 -0.03125,-0.0625 -0.0625,-0.09375 C 5.3125,-0.1875 5.25,-0.34375 5.1875,-0.53125 L 3.15625,-6.203125 c -0.21875,-0.578125 -0.75,-0.71875 -1.21875,-0.71875 -0.046875,0 -0.1875,0 -0.1875,0.109375 0,0.078125 0.078125,0.109375 0.09375,0.109375 C 2.171875,-6.65625 2.25,-6.59375 2.5,-5.90625 l 0.953125,2.703125 -2.75,2.734375 c -0.109375,0.125 -0.171875,0.171875 -0.171875,0.3125 0,0.171875 0.140625,0.28125 0.296875,0.28125 0.15625,0 0.25,-0.109375 0.328125,-0.203125 z m 0,0"
               id="id-1f9e146f-0c69-4dd1-bacd-af14ed19a458" />
          </g>
        </g>
      </g>
    </g>
    <path
       style="fill:none;fill-rule:evenodd;stroke:#000000;stroke-width:0.69088;stroke-linecap:butt;stroke-linejoin:miter;stroke-miterlimit:4;stroke-dasharray:none;stroke-opacity:1;marker-start:url(#Arrow1Mstart);marker-end:url(#Arrow1Mend)"
       d="m -84.573843,1036.7566 c 90.8138248,0 181.626436,0 272.437823,0"
       id="path1529"
       inkscape:path-effect="#path-effect1531"
       inkscape:original-d="m -84.573843,1036.7566 c 90.8138248,10e-4 181.626436,10e-4 272.437823,0"
       sodipodi:nodetypes="cc" />
    <path
       style="fill:none;fill-rule:evenodd;stroke:#000000;stroke-width:0.69088;stroke-linecap:butt;stroke-linejoin:miter;stroke-miterlimit:4;stroke-dasharray:none;stroke-opacity:1;marker-start:url(#Arrow1Mstart-3);marker-end:url(#Arrow1Mend-7)"
       d="m -31.08963,877.23034 c 3e-6,82.87817 6e-6,165.75386 9e-6,248.63086"
       id="path1529-3"
       inkscape:path-effect="#path-effect1949"
       inkscape:original-d="m -31.08963,877.23034 c 0.0012,82.87817 9e-6,248.63086 9e-6,248.63086"
       sodipodi:nodetypes="cc" />
    <g
       transform="translate(-27.8284, 929.886)"
       ns0:version="1.3.0"
       ns0:texconverter="pdflatex"
       ns0:pdfconverter="inkscape"
       ns0:text="$\\mathcal{O}(\\lambda)$"
       ns0:preamble="/home/shreyas/Teaching/Courses/2020/MA3D1/preamble.tex"
       ns0:scale="0.75"
       ns0:alignment="middle center"
       ns0:inkscapeversion="0.48.4"
       ns0:jacobian_sqrt="1.0"
       style="stroke:#000000;stroke-opacity:1;stroke-width:0"
       id="content-5">
      <defs
         id="id-d1be32e3-4cf0-4a07-9da0-7015e2bf97d9"
         style="stroke:#000000;stroke-opacity:1;stroke-width:0">
        <g
           id="id-f7c9ec0a-761c-446d-a175-752eafdc590c"
           style="stroke:#000000;stroke-opacity:1;stroke-width:0">
          <symbol
             overflow="visible"
             id="id-7874fba5-34c1-404b-9444-38a58da77780"
             style="stroke:#000000;stroke-opacity:1;stroke-width:0">
            <path
               style="stroke:#000000;stroke-opacity:1;stroke-width:0"
               d=""
               id="id-5832f8e2-be4a-4611-9046-b684ac7523d4" />
          </symbol>
          <symbol
             overflow="visible"
             id="id-95c7c36c-b126-4706-8428-f555dbb3b558"
             style="stroke:#000000;stroke-opacity:1;stroke-width:0">
            <path
               style="stroke:#000000;stroke-opacity:1;stroke-width:0"
               d="m 7.75,-4.8125 c 0,-1.265625 -0.5625,-2.21875 -1.78125,-2.21875 -1.03125,0 -1.90625,0.84375 -1.984375,0.90625 -0.796875,0.78125 -1.09375,1.671875 -1.09375,1.703125 0,0.0625 0.046875,0.0625 0.09375,0.0625 0.203125,0 0.359375,-0.09375 0.5,-0.203125 0.1875,-0.125 0.1875,-0.15625 0.296875,-0.390625 0.09375,-0.203125 0.328125,-0.6875 0.6875,-1.109375 0.25,-0.265625 0.453125,-0.421875 0.84375,-0.421875 0.96875,0 1.578125,0.796875 1.578125,2.109375 0,2.03125 -1.4375,4.046875 -3.28125,4.046875 -1.421875,0 -2.1875,-1.125 -2.1875,-2.546875 0,-1.359375 0.6875,-2.859375 2.140625,-3.71875 0.109375,-0.0625 0.40625,-0.234375 0.40625,-0.359375 0,-0.078125 -0.078125,-0.078125 -0.09375,-0.078125 -0.359375,0 -3.3125,1.59375 -3.3125,4.578125 0,1.390625 0.734375,2.671875 2.390625,2.671875 1.9375,0 4.796875,-1.953125 4.796875,-5.03125 z m 0,0"
               id="id-55b2e9ab-a597-4895-8f34-2da5088162f8" />
          </symbol>
          <symbol
             overflow="visible"
             id="id-be35c510-a817-47f4-9407-441bb9714dcc"
             style="stroke:#000000;stroke-opacity:1;stroke-width:0">
            <path
               style="stroke:#000000;stroke-opacity:1;stroke-width:0"
               d=""
               id="id-b07601e9-2fc0-4e38-9e42-404f9ba1a043" />
          </symbol>
          <symbol
             overflow="visible"
             id="id-732e7656-e203-413d-831d-a2d53c8a0141"
             style="stroke:#000000;stroke-opacity:1;stroke-width:0">
            <path
               style="stroke:#000000;stroke-opacity:1;stroke-width:0"
               d="m 3.296875,2.390625 c 0,-0.03125 0,-0.046875 -0.171875,-0.21875 C 1.890625,0.921875 1.5625,-0.96875 1.5625,-2.5 c 0,-1.734375 0.375,-3.46875 1.609375,-4.703125 0.125,-0.125 0.125,-0.140625 0.125,-0.171875 0,-0.078125 -0.03125,-0.109375 -0.09375,-0.109375 -0.109375,0 -1,0.6875 -1.59375,1.953125 -0.5,1.09375 -0.625,2.203125 -0.625,3.03125 0,0.78125 0.109375,1.984375 0.65625,3.125 C 2.25,1.84375 3.09375,2.5 3.203125,2.5 c 0.0625,0 0.09375,-0.03125 0.09375,-0.109375 z m 0,0"
               id="id-ac7c75f0-a057-471d-bc3d-2af72564f520" />
          </symbol>
          <symbol
             overflow="visible"
             id="id-6f47722b-867a-4918-b284-26a4ca2f788a"
             style="stroke:#000000;stroke-opacity:1;stroke-width:0">
            <path
               style="stroke:#000000;stroke-opacity:1;stroke-width:0"
               d="m 2.875,-2.5 c 0,-0.765625 -0.109375,-1.96875 -0.65625,-3.109375 -0.59375,-1.21875 -1.453125,-1.875 -1.546875,-1.875 -0.0625,0 -0.109375,0.046875 -0.109375,0.109375 0,0.03125 0,0.046875 0.1875,0.234375 0.984375,0.984375 1.546875,2.5625 1.546875,4.640625 0,1.71875 -0.359375,3.46875 -1.59375,4.71875 C 0.5625,2.34375 0.5625,2.359375 0.5625,2.390625 0.5625,2.453125 0.609375,2.5 0.671875,2.5 0.765625,2.5 1.671875,1.8125 2.25,0.546875 2.765625,-0.546875 2.875,-1.65625 2.875,-2.5 Z m 0,0"
               id="id-ccda6138-15b4-4346-96cb-960295302955" />
          </symbol>
          <symbol
             overflow="visible"
             id="id-5ba723c3-bb4b-4997-9225-8634056c6140"
             style="stroke:#000000;stroke-opacity:1;stroke-width:0">
            <path
               style="stroke:#000000;stroke-opacity:1;stroke-width:0"
               d=""
               id="id-906cd921-a42b-4f02-8ad9-07587fc5e1d0" />
          </symbol>
          <symbol
             overflow="visible"
             id="id-629abc40-6434-4c33-84d0-6c5de1f41a05"
             style="stroke:#000000;stroke-opacity:1;stroke-width:0">
            <path
               style="stroke:#000000;stroke-opacity:1;stroke-width:0"
               d="m 3.5625,-2.90625 c 0.40625,1.046875 0.890625,2.5625 1.046875,2.796875 0.15625,0.21875 0.25,0.21875 0.53125,0.21875 h 0.21875 c 0.09375,-0.015625 0.109375,-0.0625 0.109375,-0.09375 0,-0.03125 -0.03125,-0.0625 -0.0625,-0.09375 C 5.3125,-0.1875 5.25,-0.34375 5.1875,-0.53125 L 3.15625,-6.203125 c -0.21875,-0.578125 -0.75,-0.71875 -1.21875,-0.71875 -0.046875,0 -0.1875,0 -0.1875,0.109375 0,0.078125 0.078125,0.109375 0.09375,0.109375 C 2.171875,-6.65625 2.25,-6.59375 2.5,-5.90625 l 0.953125,2.703125 -2.75,2.734375 c -0.109375,0.125 -0.171875,0.171875 -0.171875,0.3125 0,0.171875 0.140625,0.28125 0.296875,0.28125 0.15625,0 0.25,-0.109375 0.328125,-0.203125 z m 0,0"
               id="id-9a166ab5-22d0-4d22-b51e-a1a55fe3e07b" />
          </symbol>
        </g>
      </defs>
      <g
         id="id-16826557-42e8-4faa-b0a4-efcb981fd99c"
         transform="translate(-149.275, -127.281)"
         style="stroke:#000000;stroke-opacity:1;stroke-width:0">
        <g
           style="fill:#000000;fill-opacity:1;stroke:#000000;stroke-opacity:1;stroke-width:0"
           id="id-d04202c1-c6d0-459f-ae69-5f25afe0fafc">
          <g
             transform="translate(148.712, 134.765)"
             style="stroke:#000000;stroke-opacity:1;stroke-width:0"
             id="g7725">
            <path
               style="stroke:#000000;stroke-opacity:1;stroke-width:0"
               d="m 7.75,-4.8125 c 0,-1.265625 -0.5625,-2.21875 -1.78125,-2.21875 -1.03125,0 -1.90625,0.84375 -1.984375,0.90625 -0.796875,0.78125 -1.09375,1.671875 -1.09375,1.703125 0,0.0625 0.046875,0.0625 0.09375,0.0625 0.203125,0 0.359375,-0.09375 0.5,-0.203125 0.1875,-0.125 0.1875,-0.15625 0.296875,-0.390625 0.09375,-0.203125 0.328125,-0.6875 0.6875,-1.109375 0.25,-0.265625 0.453125,-0.421875 0.84375,-0.421875 0.96875,0 1.578125,0.796875 1.578125,2.109375 0,2.03125 -1.4375,4.046875 -3.28125,4.046875 -1.421875,0 -2.1875,-1.125 -2.1875,-2.546875 0,-1.359375 0.6875,-2.859375 2.140625,-3.71875 0.109375,-0.0625 0.40625,-0.234375 0.40625,-0.359375 0,-0.078125 -0.078125,-0.078125 -0.09375,-0.078125 -0.359375,0 -3.3125,1.59375 -3.3125,4.578125 0,1.390625 0.734375,2.671875 2.390625,2.671875 1.9375,0 4.796875,-1.953125 4.796875,-5.03125 z m 0,0"
               id="id-2a1fe6da-fdd7-4944-8e94-6b596377531b" />
          </g>
        </g>
        <g
           style="fill:#000000;fill-opacity:1;stroke:#000000;stroke-opacity:1;stroke-width:0"
           id="id-04bd2083-7754-4699-b323-634619323b1a">
          <g
             transform="translate(156.92, 134.765)"
             style="stroke:#000000;stroke-opacity:1;stroke-width:0"
             id="g7729">
            <path
               style="stroke:#000000;stroke-opacity:1;stroke-width:0"
               d="m 3.296875,2.390625 c 0,-0.03125 0,-0.046875 -0.171875,-0.21875 C 1.890625,0.921875 1.5625,-0.96875 1.5625,-2.5 c 0,-1.734375 0.375,-3.46875 1.609375,-4.703125 0.125,-0.125 0.125,-0.140625 0.125,-0.171875 0,-0.078125 -0.03125,-0.109375 -0.09375,-0.109375 -0.109375,0 -1,0.6875 -1.59375,1.953125 -0.5,1.09375 -0.625,2.203125 -0.625,3.03125 0,0.78125 0.109375,1.984375 0.65625,3.125 C 2.25,1.84375 3.09375,2.5 3.203125,2.5 c 0.0625,0 0.09375,-0.03125 0.09375,-0.109375 z m 0,0"
               id="id-3a99f1d0-21e3-4215-84be-4251b30d4444" />
          </g>
        </g>
        <g
           style="fill:#000000;fill-opacity:1;stroke:#000000;stroke-opacity:1;stroke-width:0"
           id="id-a5da9e38-eaae-4cfc-907d-b1ead190c4be">
          <g
             transform="translate(160.795, 134.765)"
             style="stroke:#000000;stroke-opacity:1;stroke-width:0"
             id="g7733">
            <path
               style="stroke:#000000;stroke-opacity:1;stroke-width:0"
               d="m 3.5625,-2.90625 c 0.40625,1.046875 0.890625,2.5625 1.046875,2.796875 0.15625,0.21875 0.25,0.21875 0.53125,0.21875 h 0.21875 c 0.09375,-0.015625 0.109375,-0.0625 0.109375,-0.09375 0,-0.03125 -0.03125,-0.0625 -0.0625,-0.09375 C 5.3125,-0.1875 5.25,-0.34375 5.1875,-0.53125 L 3.15625,-6.203125 c -0.21875,-0.578125 -0.75,-0.71875 -1.21875,-0.71875 -0.046875,0 -0.1875,0 -0.1875,0.109375 0,0.078125 0.078125,0.109375 0.09375,0.109375 C 2.171875,-6.65625 2.25,-6.59375 2.5,-5.90625 l 0.953125,2.703125 -2.75,2.734375 c -0.109375,0.125 -0.171875,0.171875 -0.171875,0.3125 0,0.171875 0.140625,0.28125 0.296875,0.28125 0.15625,0 0.25,-0.109375 0.328125,-0.203125 z m 0,0"
               id="id-f3f6c892-dbf3-4312-b187-253b0911f2ac" />
          </g>
        </g>
        <g
           style="fill:#000000;fill-opacity:1;stroke:#000000;stroke-opacity:1;stroke-width:0"
           id="id-875573ec-5088-47a8-a0c8-6e638035c7a5">
          <g
             transform="translate(166.606, 134.765)"
             style="stroke:#000000;stroke-opacity:1;stroke-width:0"
             id="g7737">
            <path
               style="stroke:#000000;stroke-opacity:1;stroke-width:0"
               d="m 2.875,-2.5 c 0,-0.765625 -0.109375,-1.96875 -0.65625,-3.109375 -0.59375,-1.21875 -1.453125,-1.875 -1.546875,-1.875 -0.0625,0 -0.109375,0.046875 -0.109375,0.109375 0,0.03125 0,0.046875 0.1875,0.234375 0.984375,0.984375 1.546875,2.5625 1.546875,4.640625 0,1.71875 -0.359375,3.46875 -1.59375,4.71875 C 0.5625,2.34375 0.5625,2.359375 0.5625,2.390625 0.5625,2.453125 0.609375,2.5 0.671875,2.5 0.765625,2.5 1.671875,1.8125 2.25,0.546875 2.765625,-0.546875 2.875,-1.65625 2.875,-2.5 Z m 0,0"
               id="id-cd9ea33a-56c6-4d93-9857-6157679e3c3f" />
          </g>
        </g>
      </g>
    </g>
    <path
       id="path10053"
       style="fill:none;fill-rule:evenodd;stroke:#000000;stroke-width:1.21864px;stroke-linecap:butt;stroke-linejoin:miter;stroke-opacity:1"
       inkscape:path-effect="#path-effect10055"
       inkscape:original-d="m 189.99199,990.34352 c 7.67766,-3.06936 15.35412,-6.13994 23.02934,-9.21173 15.35442,-3.06942 30.707,-6.13994 46.05867,-9.21174 m -69.08801,18.42347 c -7.67522,4.60708 -15.35152,9.21286 -23.02933,13.81758 -15.35167,3.0718 -30.70425,6.1423 -46.05867,9.2118 -15.35168,-3.0694 -30.704258,-6.1399 -46.058666,-9.2118 -15.351678,-9.21049 -30.704257,-18.42204 -46.058677,-27.63518 -15.351666,-3.06936 -30.7042578,-6.13988 -46.05867,-9.21173 -15.351672,3.07179 -30.704254,6.14231 -46.05867,9.21173 -7.675228,4.60709 -15.351673,9.21295 -23.029337,13.8176 -15.35198,4.60718 -30.70456,9.21295 -46.05867,13.81758"
       d="m 189.99199,990.34352 c 7.67707,-3.07083 15.35353,-6.14141 26.86851,-9.21198 11.51497,-3.07058 26.86755,-6.1411 42.2195,-9.21149 m -69.08801,18.42347 c -7.67608,4.60564 -15.35238,9.21142 -26.86683,13.04968 -11.51445,3.8383 -26.86702,6.9088 -42.21984,6.9091 -15.35283,3e-4 -30.705396,-3.0703 -46.058423,-9.2112 -15.353027,-6.14086 -30.705611,-15.35241 -46.05867,-21.49394 -15.353059,-6.14153 -30.7056515,-9.21205 -46.058927,-9.21232 -15.353275,-2.6e-4 -30.705858,3.07025 -42.220971,6.90849 -11.515112,3.83824 -19.191554,8.44411 -30.706166,13.05001 -11.514613,4.6059 -26.867193,9.21167 -42.220863,13.81776"
       sodipodi:nodetypes="cccccccccccc" />
    <path
       id="path10053-1"
       style="fill:url(#linearGradient11082);fill-opacity:1;fill-rule:evenodd;stroke:none;stroke-width:1.21864px;stroke-linecap:butt;stroke-linejoin:miter;stroke-opacity:1"
       inkscape:path-effect="#path-effect10956"
       inkscape:original-d="m 259.08001,971.92001 c 10e-4,52.20099 10e-4,104.39979 0,156.59949 H -132.4187 c 0.001,-41.4516 1e-5,-124.3584 1e-5,-124.3584 0,0 30.70669,-9.21038 46.058672,-13.81758 7.67766,-4.6046 15.35411,-9.2105 23.02934,-13.81764 15.35441,-3.0694 30.70699,-6.1399 46.05867,-9.2117 15.3544104,3.0718 30.707,6.1424 46.05867,9.2117 15.35442,9.21324 30.707,18.42474 46.05867,27.63522 15.354412,3.0719 30.706988,6.1424 46.058668,9.2118 15.35442,-3.0695 30.707,-6.14 46.05867,-9.2118 7.67779,-4.60472 15.35411,-9.2105 23.02933,-13.81758 7.67767,-3.06935 15.35412,-6.1399 23.02934,-9.2117 15.35442,-3.0694 30.707,-6.13994 46.05867,-9.21174"
       d="m 259.08001,971.92001 c 0,52.20099 0,104.39979 0,130.49969 0,26.0998 -391.49871,26.0998 -391.49871,5.374 0,-20.7258 1e-5,-62.1798 1e-5,-103.6326 15.35289,-4.60586 30.70625,-9.21186 42.220846,-13.81776 11.5146,-4.6059 19.191058,-9.21178 30.706176,-13.05003 11.515117,-3.83824 26.867696,-6.90875 42.220973,-6.90849 15.3532761,2.7e-4 30.705884,3.07078 46.058959,9.21232 15.353075,6.14155 30.705631,15.35309 46.058651,21.49396 15.35302,6.1409 30.705585,9.2115 46.058415,9.2112 15.35282,-3e-4 30.70539,-3.0708 42.21983,-6.9091 11.51444,-3.83825 19.19076,-8.44404 26.86734,-12.28227 7.67658,-3.83823 15.35303,-6.9088 26.868,-9.97937 11.51497,-3.07057 26.86756,-6.14109 42.21951,-9.21148"
       sodipodi:nodetypes="cccccccccccscc" />
    <path
       id="path10053-1-9"
       style="fill:url(#pattern18695);fill-opacity:1;fill-rule:evenodd;stroke:none;stroke-width:1.21864px;stroke-linecap:butt;stroke-linejoin:miter;stroke-opacity:1"
       inkscape:path-effect="#path-effect16458"
       inkscape:original-d="m -86.360026,990.34352 c 7.67766,-4.6046 15.35411,-9.2105 23.02934,-13.8177 15.35441,-3.0694 30.70699,-6.1399 46.058671,-9.2117 15.3544094,3.0718 30.707,6.1424 46.05867,9.2117 15.35442,9.2133 30.707,18.4248 46.05867,27.63528 15.354412,3.0719 30.706985,6.1424 46.058665,9.2118 15.35442,-3.0695 30.707,-6.14 46.05867,-9.2118 7.67779,-4.60478 15.35411,-9.21048 23.02933,-13.81758"
       d="m -86.360026,990.34352 c 7.676765,-4.60609 15.353214,-9.21199 26.868341,-13.05025 11.515126,-3.83826 26.867705,-6.90877 42.220982,-6.90851 15.3532761,2.7e-4 30.705885,3.07078 46.058969,9.21234 15.353083,6.14156 30.705631,15.35312 46.058647,21.494 15.353015,6.1409 30.705577,9.2115 46.058407,9.2112 15.35282,-3e-4 30.70539,-3.0708 42.21984,-6.9091 11.51446,-3.83827 19.19074,-8.44403 26.86683,-13.04968"
       sodipodi:nodetypes="cccccccc" />
    <path
       style="fill:none;fill-rule:evenodd;stroke:#b40000;stroke-width:0.460587;stroke-linecap:butt;stroke-linejoin:miter;stroke-miterlimit:4;stroke-dasharray:none;stroke-opacity:1"
       d="m -86.36003,875.21603 c 0,0 0,252.19047 0,252.19047 0,0 276.35202,0 276.35202,0 0,0 0,-252.19047 0,-252.19047 0,0 -276.35202,0 -276.35202,0 z"
       id="path11874"
       inkscape:path-effect="#path-effect11876"
       inkscape:original-d="M -86.36003,875.21603 V 1127.4065 H 189.99199 V 875.21603 Z"
       sodipodi:nodetypes="ccccc" />
    <text
       xml:space="preserve"
       style="font-style:normal;font-variant:normal;font-weight:normal;font-stretch:normal;font-size:14.6236px;line-height:125%;font-family:cmr10;-inkscape-font-specification:Sans;text-align:start;letter-spacing:0px;word-spacing:0px;writing-mode:lr-tb;text-anchor:start;fill:#000000;fill-opacity:1;stroke:none;stroke-width:1.21864px;stroke-linecap:butt;stroke-linejoin:miter;stroke-opacity:1"
       x="-52.479553"
       y="1002.4573"
       id="text13996"
       transform="rotate(-14.665962)"><tspan
         sodipodi:role="line"
         id="tspan13994"
         style="font-size:14.6236px;stroke-width:1.21864px"
         x="-52.479553"
         y="1002.4573">interface</tspan></text>
  </g>
</svg>
